<?xml version="1.0" encoding="UTF-8" standalone="no"?>
<!-- Created with Inkscape (http://www.inkscape.org/) -->

<svg
   xmlns:dc="http://purl.org/dc/elements/1.1/"
   xmlns:cc="http://creativecommons.org/ns#"
   xmlns:rdf="http://www.w3.org/1999/02/22-rdf-syntax-ns#"
   xmlns:svg="http://www.w3.org/2000/svg"
   xmlns="http://www.w3.org/2000/svg"
   xmlns:xlink="http://www.w3.org/1999/xlink"
   xmlns:sodipodi="http://sodipodi.sourceforge.net/DTD/sodipodi-0.dtd"
   xmlns:inkscape="http://www.inkscape.org/namespaces/inkscape"
   id="svg2"
   version="1.1"
   inkscape:version="0.92.2 2405546, 2018-03-11"
   width="2481"
   height="3503"
   sodipodi:docname="E27P02.svg">
  <metadata
     id="metadata8">
    <rdf:RDF>
      <cc:Work
         rdf:about="">
        <dc:format>image/svg+xml</dc:format>
        <dc:type
           rdf:resource="http://purl.org/dc/dcmitype/StillImage" />
        <dc:title />
      </cc:Work>
    </rdf:RDF>
  </metadata>
  <defs
     id="defs6" />
  <sodipodi:namedview
     pagecolor="#ffffff"
     bordercolor="#666666"
     borderopacity="1"
     objecttolerance="10"
     gridtolerance="10"
     guidetolerance="10"
     inkscape:pageopacity="0"
     inkscape:pageshadow="2"
     inkscape:window-width="1920"
     inkscape:window-height="1024"
     id="namedview4"
     showgrid="false"
     inkscape:zoom="0.9148052"
     inkscape:cx="1847.8259"
     inkscape:cy="1702.8864"
     inkscape:window-x="0"
     inkscape:window-y="24"
     inkscape:window-maximized="1"
     inkscape:current-layer="layer1"
     inkscape:snap-global="false" />
  <g
     inkscape:groupmode="layer"
     id="layer2"
     inkscape:label="artwork"
     sodipodi:insensitive="true">
    <image
       sodipodi:absref="/home/nightlock/peppercarrot/webcomics/ep27_Coriander-s-Invention/lang/kr/../gfx_Pepper-and-Carrot_by-David-Revoy_E27P02.png"
       xlink:href="../gfx_Pepper-and-Carrot_by-David-Revoy_E27P02.png"
       y="0"
       x="0"
       id="image10"
       height="3503"
       width="2481" />
  </g>
  <g
     inkscape:groupmode="layer"
     id="layer3"
     inkscape:label="speechbubbles">
    <path
       style="fill:#ffffff;fill-rule:evenodd;stroke:none;stroke-width:1px;stroke-linecap:butt;stroke-linejoin:miter;stroke-opacity:1"
       d="m 460.94747,195.57139 c 5.74488,1.63451 59.91087,0 64.83504,-0.81725 4.92419,-0.81726 41.85554,-7.35529 50.88321,-5.72078 9.02767,1.63451 71.40061,10.6243 82.89037,11.44156 11.48975,0.81725 66.47643,2.45176 76.32479,7.35529 9.84837,4.90352 22.97952,9.80705 30.3658,17.9796 7.38627,8.17254 18.05532,33.50743 17.23462,39.22821 -0.8207,5.72078 -12.31045,44.94899 -18.87602,50.66977 -6.56557,5.72078 -29.54508,24.51763 -36.11066,26.9694 -6.56558,2.45176 -21.33811,8.98979 -28.72439,11.44156 -7.38627,2.45176 -174.80841,4.90352 -195.32583,5.72078 -20.51742,0.81725 -100.12501,-4.90353 -114.07686,-5.72078 -13.95184,-0.81726 -46.77972,1.63451 -68.11782,-6.53804 -21.33813,-8.17254 -36.11067,-38.41095 -42.67624,-44.13174 -6.56558,-5.72078 -18.05533,-30.23841 -17.23463,-39.22821 0.82069,-8.9898 17.23463,-30.23841 25.44159,-32.69017 8.20697,-2.45177 41.85554,-22.88313 61.55226,-26.9694 19.69673,-4.08627 67.29714,-13.89332 76.3248,-13.07607 12.35712,1.64213 11.0589,0.16304 35.28997,4.08627 z"
       id="path1323"
       inkscape:connector-curvature="0"
       sodipodi:nodetypes="ccsscscsscsssccsscc" />
    <path
       style="fill:#ffffff;fill-rule:evenodd;stroke:none;stroke-width:0.86434704px;stroke-linecap:butt;stroke-linejoin:miter;stroke-opacity:1"
       d="m 207.68731,163.77351 c 7.86929,-19.15682 22.13239,-29.0442 29.50984,-31.51605 7.37747,-2.47185 19.67324,3.08981 26.55888,1.85389 6.88562,-1.23593 32.95266,-12.35924 42.78928,-11.74128 9.83661,0.61796 38.85464,4.32573 48.19943,4.9437 9.34477,0.61796 32.46084,3.0898 40.82195,9.88738 8.36114,6.79758 17.70592,14.21312 19.18141,21.0107 1.47549,6.79758 4.91831,19.77478 1.47549,30.89809 -3.44281,11.12331 -11.80394,30.28013 -22.62422,32.13401 -10.82027,1.85389 -64.42985,8.65147 -76.23378,8.0335 -11.80394,-0.61796 -44.26478,0 -52.13407,0 -7.8693,0 -36.39549,-4.32573 -44.75662,-12.35923 -8.36112,-8.0335 -14.75491,-24.10051 -15.73858,-33.9879 -0.98366,-9.88738 2.95099,-19.15681 2.95099,-19.15681 z"
       id="path1325"
       inkscape:connector-curvature="0" />
    <path
       style="fill:#ffffff;fill-rule:evenodd;stroke:none;stroke-width:1px;stroke-linecap:butt;stroke-linejoin:miter;stroke-opacity:1"
       d="m 544.4243,343.97954 c 6.17962,25.33643 -4.94369,76.0093 4.32573,89.60445 9.26943,13.59516 11.12331,11.74128 19.15682,18.53886 -12.35924,15.44904 -17.92089,33.36993 -16.68497,42.63936 1.23592,9.26942 4.32573,33.36993 35.84178,44.49324 -27.19032,-19.15681 -24.71847,-38.31363 -23.48255,-43.87528 1.23593,-5.56166 6.17962,-34.60586 21.62867,-42.0214 -15.44905,-11.74127 -23.48255,-24.71847 -23.48255,-32.13401 0,-7.41554 8.65146,-82.80688 8.65146,-82.80688 z"
       id="path1327"
       inkscape:connector-curvature="0" />
    <path
       style="fill:#ffffff;fill-rule:evenodd;stroke:none;stroke-width:0.95700568px;stroke-linecap:butt;stroke-linejoin:miter;stroke-opacity:1"
       d="m 1028.778,97.600001 c -32.42456,15.598149 -62.38624,28.364589 -66.70952,51.241869 -4.32327,22.87727 -16.21228,41.59504 -17.2931,57.19318 -1.08082,15.59815 7.26449,72.50338 14.83022,93.3009 7.56573,20.79753 48.6369,68.63183 54.0409,72.79134 5.4041,4.15949 41.0712,17.67789 58.3643,23.91714 17.2931,6.23926 155.6379,10.39876 180.4967,13.51839 24.8589,3.11963 91.8696,-14.55826 109.1628,-21.8374 17.2931,-7.27913 41.0711,-10.39876 51.8793,-22.87727 10.8082,-12.47851 35.667,-45.75454 39.9903,-60.3128 4.3232,-14.55827 4.3232,-64.47232 4.3232,-74.87109 0,-10.39876 -1.0808,-56.15331 -21.6163,-75.91095 -20.5356,-19.75764 -55.1218,-46.79443 -82.1423,-55.113431 C 1327.084,90.32087 1163.8804,77.842357 1145.5065,76.80248 1127.1325,75.762605 1028.778,97.600001 1028.778,97.600001 Z"
       id="path1329"
       inkscape:connector-curvature="0"
       sodipodi:nodetypes="cssscsscscscssc" />
    <path
       style="fill:#ffffff;fill-rule:evenodd;stroke:none;stroke-width:0.77159274px;stroke-linecap:butt;stroke-linejoin:miter;stroke-opacity:1"
       d="m 1055.2353,365.77779 c -23.5293,12.29603 -49.7736,23.82357 -55.2035,32.27709 -5.42982,8.45352 -12.66963,31.50857 -9.04979,42.26761 3.61997,10.75903 15.38469,55.33215 28.95929,63.78567 13.5746,8.45352 57.0136,34.58259 78.733,34.58259 21.7194,0 91.4025,9.99052 103.1673,9.22202 11.7646,-0.7685 87.7826,8.45352 107.6922,0.7685 19.9094,-7.68502 45.2487,-21.51805 60.6334,-26.12907 15.3844,-4.611 52.4885,-6.91651 63.3482,-23.82356 10.8598,-16.90704 15.7192,-47.09692 7.2399,-69.16519 -8.2009,-21.34346 -25.3393,-39.96209 -52.4887,-51.48963 -27.1492,-11.52752 -114.027,-36.88809 -114.027,-36.88809 l -130.3165,-9.99053 c 0,0 -20.8145,6.91652 -42.534,16.90704 -21.7194,9.99053 -46.1538,17.67555 -46.1538,17.67555 z"
       id="path1331"
       inkscape:connector-curvature="0"
       sodipodi:nodetypes="csccsccccasccsc" />
    <path
       style="fill:#ffffff;fill-rule:evenodd;stroke:none;stroke-width:1.16436148px;stroke-linecap:butt;stroke-linejoin:miter;stroke-opacity:1"
       d="m 1351.9814,518.19685 c 0,0 27.0205,30.77144 35.667,51.28574 8.6466,20.51429 27.0205,49.82043 22.6972,104.03678 10.8082,-70.33473 10.8082,-90.84902 -20.5355,-158.25313 -31.3438,-67.40412 -37.8287,2.93061 -37.8287,2.93061 z"
       id="path1333"
       inkscape:connector-curvature="0" />
    <path
       style="fill:#ffffff;fill-rule:evenodd;stroke:none;stroke-width:0.92367774px;stroke-linecap:butt;stroke-linejoin:miter;stroke-opacity:1"
       d="m 1661.0546,243.63767 c 10.1988,-43.74563 13.5984,-69.26393 37.3955,-85.06097 23.7971,-15.79703 121.2521,-29.16375 134.8505,-30.37891 13.5984,-1.21515 54.3934,3.64548 73.6578,3.64548 19.2644,0 118.9857,-2.43032 134.8505,-2.43032 15.8647,0 80.457,0 97.455,2.43032 16.9979,2.4303 77.0573,17.01218 87.2562,27.9486 10.1988,10.9364 39.6618,57.11235 40.795,87.49127 1.1333,30.37892 -1.1332,80.20034 -21.5307,99.64284 -20.3975,19.4425 -67.9919,43.74563 -99.7214,51.03658 -31.7295,7.29094 -186.9776,15.79703 -205.1086,15.79703 -18.1313,0 -95.1886,3.64547 -132.5841,-2.43031 -37.3955,-6.07578 -78.1907,-24.30313 -97.455,-41.31532 -19.2643,-17.0122 -43.0616,-29.16376 -49.8607,-61.97299 -6.7992,-32.80923 0,-64.4033 0,-64.4033 z"
       id="path1335"
       inkscape:connector-curvature="0" />
    <path
       style="fill:#ffffff;fill-rule:evenodd;stroke:none;stroke-width:0.96149123px;stroke-linecap:butt;stroke-linejoin:miter;stroke-opacity:1"
       d="m 1762.6346,423.03907 c 25.4335,26.61792 39.6214,47.56076 -10.5443,80.71719 45.4241,-0.72812 40.2815,20.05383 31.6328,45.56614 61.8445,-20.5973 105.1506,-7.40942 111.3008,32.54725 40.5999,-32.2476 46.7452,-26.46532 77.3247,-1.30189 36.6385,-49.89404 57.8767,-15.54139 84.3542,-10.41512 -5.4377,-23.03081 12.507,-43.92498 57.7558,-10.21797 -16.2422,-18.88765 -9.8109,-65.99877 52.3735,-69.19731 -27.8736,-10.89059 -67.6695,-22.51429 -21.0886,-69.00017 -71.7576,-8.98442 -36.931,-27.33589 -48.0351,-41.66048 l -104.2712,-13.0189 -105.4428,7.81134 -53.893,5.20756 c -1.304,20.45876 4.1421,42.79545 -71.4668,42.96236 z"
       id="path1337"
       inkscape:connector-curvature="0"
       sodipodi:nodetypes="cccccccccccccc" />
    <path
       style="fill:#ffffff;fill-rule:evenodd;stroke:none;stroke-width:1px;stroke-linecap:butt;stroke-linejoin:miter;stroke-opacity:1"
       d="m 2083.819,528.58622 c 24.8588,19.45474 57.2834,63.76832 55.1217,92.95043 10.8082,-38.90948 -17.2931,-97.27371 -31.3437,-112.40517 -14.0507,-15.13147 -23.778,19.45474 -23.778,19.45474 z"
       id="path1339"
       inkscape:connector-curvature="0" />
    <path
       style="fill:#ffffff;fill-rule:evenodd;stroke:none;stroke-width:0.82932127px;stroke-linecap:butt;stroke-linejoin:miter;stroke-opacity:1"
       d="m 995.11267,1438.6648 c 7.56183,-34.2595 22.68563,-50.6446 43.21093,-59.5818 20.5252,-8.9372 74.5388,1.4895 88.5823,1.4895 14.0435,0 70.2178,7.4477 77.7797,19.3641 7.5619,11.9164 25.9265,37.2387 20.5251,64.0505 -5.4013,26.8118 -11.8829,53.6236 -41.0503,68.519 -29.1674,14.8954 -56.1742,0 -66.977,1.4896 -10.8027,1.4895 -24.8462,8.9372 -55.0938,1.4895 -30.2477,-7.4477 -69.13751,-46.1759 -66.97693,-96.8204 z"
       id="path1341"
       inkscape:connector-curvature="0" />
    <path
       style="fill:#ffffff;fill-rule:evenodd;stroke:none;stroke-width:1px;stroke-linecap:butt;stroke-linejoin:miter;stroke-opacity:1"
       d="m 1321.8416,1549.9601 c -25.1103,-26.3097 -29.3743,-46.7563 -36.94,-53.2412 -7.5658,-6.4849 -52.768,-40.79 -87.3542,-44.0325 -34.5862,-3.2424 -28.1013,24.8589 -28.1013,24.8589 0,0 36.7479,1.0808 51.8793,5.4041 15.1315,4.3232 48.6369,20.5355 54.041,24.8588 5.4041,4.3233 19.4547,27.0205 46.4752,42.1519 z"
       id="path1343"
       inkscape:connector-curvature="0"
       sodipodi:nodetypes="cccccsc" />
    <path
       style="fill:#ffffff;fill-rule:evenodd;stroke:none;stroke-width:1px;stroke-linecap:butt;stroke-linejoin:miter;stroke-opacity:1"
       d="m 1847.0115,1634.8585 c 65.8759,-41.0171 79.5483,-53.4465 129.266,-55.9324 49.7176,-2.4859 59.6612,-29.8306 59.6612,-29.8306 0,0 -34.8024,-1.243 -72.0906,6.2147 -37.2883,7.4576 -95.7066,37.2882 -116.8366,79.5483 z"
       id="path1345"
       inkscape:connector-curvature="0" />
    <path
       style="fill:#ffffff;fill-rule:evenodd;stroke:none;stroke-width:1.10375357px;stroke-linecap:butt;stroke-linejoin:miter;stroke-opacity:1"
       d="m 1981.9673,1519.225 c 21.6849,-20.9727 77.4459,-43.2562 111.5221,-47.1886 34.0761,-3.9323 142.5003,5.2432 165.7341,17.0403 23.2337,11.7972 71.2502,20.9728 69.7013,58.9858 -1.549,38.013 6.1956,55.0534 -29.4295,76.026 -35.625,20.9728 -161.0873,15.7296 -188.9677,14.4188 -27.8807,-1.3107 -80.5438,-6.5539 -108.4243,-30.1483 -27.8805,-23.5942 -40.2718,-48.4993 -20.136,-89.134 z"
       id="path1347"
       inkscape:connector-curvature="0" />
    <path
       style="fill:#ffffff;fill-rule:evenodd;stroke:none;stroke-width:0.93798184px;stroke-linecap:butt;stroke-linejoin:miter;stroke-opacity:1"
       d="m 2010.2844,1647.0566 c 21.5774,-28.221 74.1719,-38.2999 86.3092,-38.2999 12.1373,0 106.538,6.0473 124.0694,6.0473 17.5317,0 53.9433,-6.0473 74.172,-4.0315 20.2288,2.0158 57.9889,0 74.1719,20.1578 16.183,20.1578 28.3202,64.505 24.2745,83.655 -4.0457,19.1499 5.3944,44.3471 -12.1373,73.576 -17.5314,29.2288 -24.2744,40.3156 -49.8974,49.3867 -25.6231,9.071 -146.9953,5.0394 -173.9669,2.0158 -26.9717,-3.0238 -79.5663,0 -102.4921,-5.0395 -22.9259,-5.0395 -59.3376,-22.1737 -53.9434,-43.3393 5.3944,-21.1657 -9.4399,-40.3157 -2.6971,-76.5997 6.743,-36.2841 12.1372,-67.5287 12.1372,-67.5287 z"
       id="path1349"
       inkscape:connector-curvature="0" />
    <path
       style="fill:#ffffff;fill-rule:evenodd;stroke:none;stroke-width:0.99999994px;stroke-linecap:butt;stroke-linejoin:miter;stroke-opacity:1"
       d="m 110.76633,2437.3746 c 0,-35.8207 25.87264,-41.7908 42.74609,-41.7908 16.87346,0 71.9934,-4.7762 79.86769,-4.7762 7.87428,0 66.36892,7.1642 76.493,13.1343 10.12407,5.9701 25.87262,10.7462 23.62284,32.2386 -2.2498,21.4925 0,33.4327 -22.49794,39.4028 -22.49795,5.9702 -110.23992,8.3582 -125.98848,7.1642 -15.74855,-1.194 -39.37139,-10.7463 -50.62036,-17.9104 -11.24897,-7.1641 -25.87264,-9.5522 -23.62284,-27.4625 z"
       id="path1351"
       inkscape:connector-curvature="0" />
    <path
       style="fill:#ffffff;fill-rule:evenodd;stroke:none;stroke-width:0.83639628px;stroke-linecap:butt;stroke-linejoin:miter;stroke-opacity:1"
       d="m 295.28055,2453.2743 c 44.65781,-10.0888 76.22952,-7.6955 89.43503,-6.1988 13.8975,1.5751 49.11111,10.8788 60.13606,19.0324 11.02493,8.1535 25.0842,24.6727 24.08193,34.4569 -1.00227,9.7843 6.41189,36.6687 5.40963,49.7144 -1.00227,13.0456 -11.68396,57.9124 -18.69983,76.6656 -7.01588,18.7531 -24.05443,40.7677 -99.22449,44.8445 -75.17007,4.0767 -121.27438,2.4461 -150.34014,-4.0768 -29.06576,-6.5228 -66.14967,-10.5996 -76.17234,-41.583 -10.02268,-30.9836 -13.02948,-66.0438 -10.02268,-80.7201 3.00681,-14.6765 6.01361,-47.2906 10.02268,-52.9981 4.00907,-5.7075 16.11883,-27.9341 25.13923,-32.8262 9.02041,-4.8921 140.23492,-6.3108 140.23492,-6.3108 z"
       id="path1353"
       inkscape:connector-curvature="0"
       sodipodi:nodetypes="csssscscsscsc" />
    <path
       style="fill:#ffffff;fill-rule:evenodd;stroke:none;stroke-width:1.06702673px;stroke-linecap:butt;stroke-linejoin:miter;stroke-opacity:1"
       d="m 510.98117,2533.5054 c 1.23056,-19.4547 15.99731,-55.1218 38.14744,-61.6067 22.15011,-6.4849 83.67821,-6.4849 95.98384,-3.2424 12.30562,3.2424 31.99463,27.0204 36.91687,36.7478 4.92225,9.7274 18.45844,44.3136 -3.69168,58.3642 -22.15012,14.0507 -44.30025,24.8589 -67.68093,23.778 -23.38068,-1.0808 -70.14205,-8.6465 -81.21711,-21.6163 -11.07506,-12.9699 -18.45843,-32.4246 -18.45843,-32.4246 z"
       id="path1355"
       inkscape:connector-curvature="0" />
    <path
       style="fill:#ffffff;fill-rule:evenodd;stroke:none;stroke-width:1.17783105px;stroke-linecap:butt;stroke-linejoin:miter;stroke-opacity:1"
       d="m 371.0335,2665.7761 c 0,0 10.62431,10.204 12.25882,32.8791 1.63451,22.6753 -0.81725,48.752 -13.89333,75.9624 28.60391,-45.3507 43.31449,-77.0961 34.32469,-115.6441 -8.9898,-38.548 -32.69018,6.8026 -32.69018,6.8026 z"
       id="path1357"
       inkscape:connector-curvature="0" />
    <path
       style="fill:#ffffff;fill-rule:evenodd;stroke:none;stroke-width:1px;stroke-linecap:butt;stroke-linejoin:miter;stroke-opacity:1"
       d="m 609.41023,2578.6689 c 0,0 17.16235,24.5177 9.80706,38.411 -7.35529,13.8933 -8.9898,18.7968 -25.33489,35.1419 26.9694,-17.9796 37.5937,-31.0556 40.86272,-43.3145 3.26902,-12.2588 5.72078,-35.9592 5.72078,-42.4972 0,-6.538 -31.05567,12.2588 -31.05567,12.2588 z"
       id="path1359"
       inkscape:connector-curvature="0" />
    <path
       style="fill:#ffffff;fill-rule:evenodd;stroke:none;stroke-width:1.03840244px;stroke-linecap:butt;stroke-linejoin:miter;stroke-opacity:1"
       d="m 721.7991,2510.6937 c -9.39843,-42.5634 -7.51874,-84.1134 4.69921,-95.2608 4.75927,-26.065 60.0674,-65.3013 81.7663,-59.7915 16.91717,-4.0536 108.0819,-25.3353 125.93891,-23.3084 17.85701,2.0267 118.32618,4.6109 137.12298,22.8524 18.7969,18.2414 34.2573,28.5276 45.5355,47.7825 11.2781,19.2548 17.716,57.2071 23.3551,63.2875 5.639,6.0806 3.5713,36.3309 -1.1279,53.5589 -4.6992,17.2281 -21.6164,31.4159 -46.0523,37.4963 -24.4359,6.0806 -57.3304,14.1878 -78.9468,15.2013 -21.61634,1.0134 -71.428,1.0134 -109.0217,-2.0268 -44.76237,-9.5027 -72.61993,-9.7453 -117.26947,-14.0847 -8.45859,-1.0133 -64.12015,-18.3446 -65.99983,-45.7067 z"
       id="path1361"
       inkscape:connector-curvature="0"
       sodipodi:nodetypes="ccccccccccccc" />
    <path
       style="fill:#ffffff;fill-rule:evenodd;stroke:none;stroke-width:1px;stroke-linecap:butt;stroke-linejoin:miter;stroke-opacity:1"
       d="m 1048.8643,2539.6614 c 40.4132,37.5937 65.789,69.5483 47.932,102.4428 29.1351,-35.714 14.0976,-69.5483 -24.4359,-117.4803 -38.5336,-47.932 -23.4961,15.0375 -23.4961,15.0375 z"
       id="path1363"
       inkscape:connector-curvature="0" />
    <path
       style="fill:#ffffff;fill-rule:evenodd;stroke:none;stroke-width:1px;stroke-linecap:butt;stroke-linejoin:miter;stroke-opacity:1"
       d="m 1362.7766,2499.8218 c -0.8172,-27.7867 20.4314,-32.6902 31.8729,-34.3247 11.4416,-1.6345 58.8423,-9.807 76.8219,3.269 17.9796,13.0761 22.8832,35.142 14.7106,43.3145 -8.1725,8.1726 -34.3247,20.4314 -50.6698,21.2486 -16.345,0.8173 -51.487,-4.0862 -62.9285,-15.5278 -11.4416,-11.4416 -9.8071,-17.9796 -9.8071,-17.9796 z"
       id="path1365"
       inkscape:connector-curvature="0" />
    <path
       style="fill:#ffffff;fill-rule:evenodd;stroke:none;stroke-width:1px;stroke-linecap:butt;stroke-linejoin:miter;stroke-opacity:1"
       d="m 1445.7231,2523.112 c 0,0 19.6141,10.6243 24.5176,19.6141 4.9035,8.9898 13.0761,31.0556 8.9898,45.7662 13.0761,-26.1521 8.1725,-42.4972 4.9035,-49.8525 -3.269,-7.3553 -23.7004,-34.3247 -23.7004,-34.3247 z"
       id="path1367"
       inkscape:connector-curvature="0" />
    <path
       style="fill:#ffffff;fill-rule:evenodd;stroke:none;stroke-width:0.93609637px;stroke-linecap:butt;stroke-linejoin:miter;stroke-opacity:1"
       d="m 1835.9904,2452.444 c 3.9617,-52.9602 28.7221,-69.1724 45.5593,-76.7382 16.8372,-7.5657 86.1666,-18.3739 109.9366,-17.2931 23.7701,1.0808 111.9175,11.889 126.7738,12.9698 14.8563,1.0809 52.4922,25.9397 55.4635,32.4246 2.9713,6.4849 15.8468,23.778 11.885,43.2328 -3.9616,19.4547 -26.7413,45.3944 -48.5306,55.1217 -21.7892,9.7274 -108.946,17.2931 -125.7833,15.1315 -16.8371,-2.1616 -45.5592,-5.4041 -62.3964,-5.4041 -16.8372,0 -70.3198,-1.0808 -84.1858,-12.9698 -13.8658,-11.889 -28.7221,-46.4752 -28.7221,-46.4752 z"
       id="path1369"
       inkscape:connector-curvature="0" />
    <path
       style="fill:#ffffff;fill-rule:evenodd;stroke:none;stroke-width:1px;stroke-linecap:butt;stroke-linejoin:miter;stroke-opacity:1"
       d="m 1988.5393,2507.5657 c 15.6768,24.1512 6.1632,34.5534 -20.368,35.6671 20.5199,9.9586 46.1337,15.5923 40.7359,47.556 22.7818,-0.375 37.1938,-19.937 73.551,10.8082 21.4995,-25.3561 42.999,-13.281 64.4986,-2.1617 10.3119,-11.3113 29.2981,-12.0311 69.0248,-6.4849 -3.0677,-25.0109 21.8624,-36.1565 45.2622,-44.3136 -19.8128,-13.1763 -37.659,-27.5479 -24.8943,-60.5258 -28.7916,7.2773 -53.0033,6.6803 -66.7616,-11.889 -28.5646,4.157 -50.0209,21.8927 -89.3928,5.4041 -21.2019,19.9279 -44.8336,21.2885 -69.0248,18.3739 5.5129,17.7643 -0.9947,21.4958 -22.631,7.5657 z"
       id="path1371"
       inkscape:connector-curvature="0"
       sodipodi:nodetypes="cccccccccccc" />
    <path
       style="fill:#ffffff;fill-rule:evenodd;stroke:none;stroke-width:1px;stroke-linecap:butt;stroke-linejoin:miter;stroke-opacity:1"
       d="m 2142.1832,2571.3341 c -3.2425,28.1012 8.6465,79.9806 34.5862,113.4859 -3.2425,16.2123 1.0808,33.5054 15.1315,47.5561 -12.9699,-29.1821 -7.5658,-36.7479 -1.0809,-50.7985 -12.9698,-20.5356 -31.3437,-69.1724 -34.5862,-109.1627 -3.2424,-39.9903 -14.0506,-1.0808 -14.0506,-1.0808 z"
       id="path1373"
       inkscape:connector-curvature="0" />
  </g>
  <g
     inkscape:groupmode="layer"
     id="layer1"
     inkscape:label="txt">
    <text
       id="text997"
       y="2498.2329"
       x="1428.363"
       style="font-style:normal;font-variant:normal;font-weight:normal;font-stretch:normal;font-size:20.91728401px;line-height:1;font-family:'Nanum Pen Script OTF';-inkscape-font-specification:'Nanum Pen Script OTF';text-align:center;letter-spacing:0px;word-spacing:0px;text-anchor:middle;fill:#000000;fill-opacity:1;stroke:none;stroke-width:1.74310696"
       xml:space="preserve"><tspan
         id="tspan995"
         y="2498.2329"
         x="1428.363"
         style="font-style:normal;font-variant:normal;font-weight:normal;font-stretch:normal;font-size:78.43981171px;line-height:1;font-family:'Nanum Pen Script OTF';-inkscape-font-specification:'Nanum Pen Script OTF';stroke-width:1.74310696"
         sodipodi:role="line">...</tspan></text>
    <text
       id="text899"
       y="198.01012"
       x="315.53571"
       style="font-style:normal;font-variant:normal;font-weight:normal;font-stretch:normal;font-size:15.67170429px;line-height:1;font-family:'Nanum Pen Script OTF';-inkscape-font-specification:'Nanum Pen Script OTF';text-align:center;letter-spacing:0px;word-spacing:0px;text-anchor:middle;fill:#000000;fill-opacity:1;stroke:none;stroke-width:1.30597532"
       xml:space="preserve"><tspan
         y="198.01012"
         x="315.53571"
         style="font-style:normal;font-variant:normal;font-weight:normal;font-stretch:normal;font-size:58.76889038px;line-height:1;font-family:'Nanum Pen Script OTF';-inkscape-font-specification:'Nanum Pen Script OTF';stroke-width:1.30597532"
         sodipodi:role="line"
         id="tspan1009">있잖아...</tspan></text>
    <text
       id="text905"
       y="268.93845"
       x="527.64917"
       style="font-style:normal;font-variant:normal;font-weight:normal;font-stretch:normal;font-size:15.42036152px;line-height:1;font-family:'Nanum Pen Script OTF';-inkscape-font-specification:'Nanum Pen Script OTF';text-align:center;letter-spacing:0px;word-spacing:0px;text-anchor:middle;fill:#000000;fill-opacity:1;stroke:none;stroke-width:1.28503013"
       xml:space="preserve"><tspan
         id="tspan903"
         y="268.93845"
         x="527.64917"
         style="font-style:normal;font-variant:normal;font-weight:normal;font-stretch:normal;font-size:57.82635498px;line-height:1;font-family:'Nanum Pen Script OTF';-inkscape-font-specification:'Nanum Pen Script OTF';stroke-width:1.28503013"
         sodipodi:role="line">다시 방범을 어떻게</tspan><tspan
         y="326.7648"
         x="527.64917"
         style="font-style:normal;font-variant:normal;font-weight:normal;font-stretch:normal;font-size:57.82635498px;line-height:1;font-family:'Nanum Pen Script OTF';-inkscape-font-specification:'Nanum Pen Script OTF';stroke-width:1.28503013"
         sodipodi:role="line"
         id="tspan1015">해볼까 생각 중이야...</tspan></text>
    <text
       id="text917"
       y="177.90608"
       x="1203.0869"
       style="font-style:normal;font-variant:normal;font-weight:normal;font-stretch:normal;font-size:15.53813171px;line-height:1;font-family:'Nanum Pen Script OTF';-inkscape-font-specification:'Nanum Pen Script OTF';text-align:center;letter-spacing:0px;word-spacing:0px;text-anchor:middle;fill:#000000;fill-opacity:1;stroke:none;stroke-width:1.29484439"
       xml:space="preserve"><tspan
         id="tspan915"
         y="177.90608"
         x="1203.0869"
         style="font-style:normal;font-variant:normal;font-weight:normal;font-stretch:normal;font-size:58.26799393px;line-height:1;font-family:'Nanum Pen Script OTF';-inkscape-font-specification:'Nanum Pen Script OTF';stroke-width:1.29484439"
         sodipodi:role="line">수많은</tspan><tspan
         y="236.17407"
         x="1203.0869"
         style="font-style:normal;font-variant:normal;font-weight:normal;font-stretch:normal;font-size:58.26799393px;line-height:1;font-family:'Nanum Pen Script OTF';-inkscape-font-specification:'Nanum Pen Script OTF';stroke-width:1.29484439"
         sodipodi:role="line"
         id="tspan1031">어린 왕과 여왕들이</tspan><tspan
         y="294.44208"
         x="1203.0869"
         style="font-style:normal;font-variant:normal;font-weight:normal;font-stretch:normal;font-size:58.26799393px;line-height:1;font-family:'Nanum Pen Script OTF';-inkscape-font-specification:'Nanum Pen Script OTF';stroke-width:1.29484439"
         sodipodi:role="line"
         id="tspan1033">대관식 행사 때</tspan><tspan
         y="352.71005"
         x="1203.0869"
         style="font-style:normal;font-variant:normal;font-weight:normal;font-stretch:normal;font-size:58.26799393px;line-height:1;font-family:'Nanum Pen Script OTF';-inkscape-font-specification:'Nanum Pen Script OTF';stroke-width:1.29484439"
         sodipodi:role="line"
         id="tspan1035">살해당했어.</tspan></text>
    <text
       id="text925"
       y="447.2316"
       x="1222.5741"
       style="font-style:normal;font-variant:normal;font-weight:normal;font-stretch:normal;font-size:14.60739136px;line-height:1;font-family:'Nanum Pen Script OTF';-inkscape-font-specification:'Nanum Pen Script OTF';text-align:center;letter-spacing:0px;word-spacing:0px;text-anchor:middle;fill:#000000;fill-opacity:1;stroke:none;stroke-width:1.21728265"
       xml:space="preserve"><tspan
         id="tspan923"
         y="447.2316"
         x="1222.5741"
         style="font-style:normal;font-variant:normal;font-weight:normal;font-stretch:normal;font-size:54.77771759px;line-height:1;font-family:'Nanum Pen Script OTF';-inkscape-font-specification:'Nanum Pen Script OTF';stroke-width:1.21728265"
         sodipodi:role="line">우리 가족의</tspan><tspan
         y="502.00931"
         x="1222.5741"
         style="font-style:normal;font-variant:normal;font-weight:normal;font-stretch:normal;font-size:54.77771759px;line-height:1;font-family:'Nanum Pen Script OTF';-inkscape-font-specification:'Nanum Pen Script OTF';stroke-width:1.21728265"
         sodipodi:role="line"
         id="tspan1043">역사가 되어 버렸지.</tspan></text>
    <text
       id="text937"
       y="206.87738"
       x="1961.4497"
       style="font-style:normal;font-variant:normal;font-weight:normal;font-stretch:normal;font-size:14.74975872px;line-height:1;font-family:'Nanum Pen Script OTF';-inkscape-font-specification:'Nanum Pen Script OTF';text-align:center;letter-spacing:0px;word-spacing:0px;text-anchor:middle;fill:#000000;fill-opacity:1;stroke:none;stroke-width:1.2291466"
       xml:space="preserve"><tspan
         id="tspan935"
         y="206.87738"
         x="1961.4497"
         style="font-style:normal;font-variant:normal;font-weight:normal;font-stretch:normal;font-size:55.31159592px;line-height:1;font-family:'Nanum Pen Script OTF';-inkscape-font-specification:'Nanum Pen Script OTF';stroke-width:1.2291466"
         sodipodi:role="line">근데, 이제 몇 시간 뒤엔,</tspan><tspan
         y="262.18896"
         x="1961.4497"
         style="font-style:normal;font-variant:normal;font-weight:normal;font-stretch:normal;font-size:55.31159592px;line-height:1;font-family:'Nanum Pen Script OTF';-inkscape-font-specification:'Nanum Pen Script OTF';stroke-width:1.2291466"
         sodipodi:role="line"
         id="tspan1125">우리가 여러 나라에서 온</tspan><tspan
         y="317.50058"
         x="1961.4497"
         style="font-style:normal;font-variant:normal;font-weight:normal;font-stretch:normal;font-size:55.31159592px;line-height:1;font-family:'Nanum Pen Script OTF';-inkscape-font-specification:'Nanum Pen Script OTF';stroke-width:1.2291466"
         sodipodi:role="line"
         id="tspan1127">수천명의 손님들을 맞이하고</tspan><tspan
         y="372.81216"
         x="1961.4497"
         style="font-style:normal;font-variant:normal;font-weight:normal;font-stretch:normal;font-size:55.31159592px;line-height:1;font-family:'Nanum Pen Script OTF';-inkscape-font-specification:'Nanum Pen Script OTF';stroke-width:1.2291466"
         sodipodi:role="line"
         id="tspan1131">나는 그 중심에 있을 거야.</tspan></text>
    <text
       id="text943"
       y="1449.7946"
       x="1115.0699"
       style="font-style:normal;font-variant:normal;font-weight:normal;font-stretch:normal;font-size:15.29617405px;line-height:1;font-family:'Nanum Pen Script OTF';-inkscape-font-specification:'Nanum Pen Script OTF';text-align:center;letter-spacing:0px;word-spacing:0px;text-anchor:middle;fill:#000000;fill-opacity:1;stroke:none;stroke-width:1.27468121"
       xml:space="preserve"><tspan
         id="tspan941"
         y="1449.7946"
         x="1115.0699"
         style="font-style:normal;font-variant:normal;font-weight:normal;font-stretch:normal;font-size:57.36065292px;line-height:1;font-family:'Nanum Pen Script OTF';-inkscape-font-specification:'Nanum Pen Script OTF';stroke-width:1.27468121"
         sodipodi:role="line">걱정 마,</tspan><tspan
         y="1507.1552"
         x="1115.0699"
         style="font-style:normal;font-variant:normal;font-weight:normal;font-stretch:normal;font-size:57.36065292px;line-height:1;font-family:'Nanum Pen Script OTF';-inkscape-font-specification:'Nanum Pen Script OTF';stroke-width:1.27468121"
         sodipodi:role="line"
         id="tspan1047">고수.</tspan></text>
    <text
       id="text949"
       y="465.19034"
       x="1957.5651"
       style="font-style:normal;font-variant:normal;font-weight:normal;font-stretch:normal;font-size:15.19420242px;line-height:1;font-family:'Nanum Pen Script OTF';-inkscape-font-specification:'Nanum Pen Script OTF';text-align:center;letter-spacing:0px;word-spacing:0px;text-anchor:middle;fill:#000000;fill-opacity:1;stroke:none;stroke-width:1.2661835"
       xml:space="preserve"><tspan
         id="tspan947"
         y="465.19034"
         x="1957.5651"
         style="font-style:normal;font-variant:normal;font-weight:normal;font-stretch:normal;font-size:56.97826004px;line-height:1;font-family:'Nanum Pen Script OTF';-inkscape-font-specification:'Nanum Pen Script OTF';stroke-width:1.2661835"
         sodipodi:role="line">나 정말,</tspan><tspan
         y="522.16858"
         x="1957.5651"
         style="font-style:normal;font-variant:normal;font-weight:normal;font-stretch:normal;font-size:56.97826004px;line-height:1;font-family:'Nanum Pen Script OTF';-inkscape-font-specification:'Nanum Pen Script OTF';stroke-width:1.2661835"
         sodipodi:role="line"
         id="tspan1135">정말 무서워!</tspan></text>
    <text
       id="text955"
       y="1552.0471"
       x="2152.9966"
       style="font-style:normal;font-variant:normal;font-weight:normal;font-stretch:normal;font-size:14.3795681px;line-height:1;font-family:'Nanum Pen Script OTF';-inkscape-font-specification:'Nanum Pen Script OTF';text-align:center;letter-spacing:0px;word-spacing:0px;text-anchor:middle;fill:#000000;fill-opacity:1;stroke:none;stroke-width:1.19829738"
       xml:space="preserve"><tspan
         id="tspan953"
         y="1552.0471"
         x="2152.9966"
         style="font-style:normal;font-variant:normal;font-weight:normal;font-stretch:normal;font-size:53.92338181px;line-height:1;font-family:'Nanum Pen Script OTF';-inkscape-font-specification:'Nanum Pen Script OTF';stroke-width:1.19829738"
         sodipodi:role="line">우린 우리 계획대로</tspan><tspan
         y="1605.9705"
         x="2152.9966"
         style="font-style:normal;font-variant:normal;font-weight:normal;font-stretch:normal;font-size:53.92338181px;line-height:1;font-family:'Nanum Pen Script OTF';-inkscape-font-specification:'Nanum Pen Script OTF';stroke-width:1.19829738"
         sodipodi:role="line"
         id="tspan1070">가는 거야.</tspan></text>
    <text
       id="text965"
       y="1699.2119"
       x="2197.6345"
       style="font-style:normal;font-variant:normal;font-weight:normal;font-stretch:normal;font-size:14.9539938px;line-height:1;font-family:'Nanum Pen Script OTF';-inkscape-font-specification:'Nanum Pen Script OTF';text-align:center;letter-spacing:0px;word-spacing:0px;text-anchor:middle;fill:#000000;fill-opacity:1;stroke:none;stroke-width:1.24616611"
       xml:space="preserve"><tspan
         y="1699.2119"
         x="2197.6345"
         style="font-style:normal;font-variant:normal;font-weight:normal;font-stretch:normal;font-size:56.0774765px;line-height:1;font-family:'Nanum Pen Script OTF';-inkscape-font-specification:'Nanum Pen Script OTF';stroke-width:1.24616611"
         sodipodi:role="line"
         id="tspan1064">칠미랑 내가 너를</tspan><tspan
         y="1755.2894"
         x="2197.6345"
         style="font-style:normal;font-variant:normal;font-weight:normal;font-stretch:normal;font-size:56.0774765px;line-height:1;font-family:'Nanum Pen Script OTF';-inkscape-font-specification:'Nanum Pen Script OTF';stroke-width:1.24616611"
         sodipodi:role="line"
         id="tspan910">경호해 주기로 했잖아,</tspan><tspan
         y="1811.3668"
         x="2197.6345"
         style="font-style:normal;font-variant:normal;font-weight:normal;font-stretch:normal;font-size:56.0774765px;line-height:1;font-family:'Nanum Pen Script OTF';-inkscape-font-specification:'Nanum Pen Script OTF';stroke-width:1.24616611"
         sodipodi:role="line"
         id="tspan1066">안 그래?</tspan></text>
    <text
       id="text969"
       y="2451.2654"
       x="224.60757"
       style="font-style:normal;font-variant:normal;font-weight:normal;font-stretch:normal;font-size:15.52854061px;line-height:1;font-family:'Nanum Pen Script OTF';-inkscape-font-specification:'Nanum Pen Script OTF';text-align:center;letter-spacing:0px;word-spacing:0px;text-anchor:middle;fill:#000000;fill-opacity:1;stroke:none;stroke-width:1.29404509"
       xml:space="preserve"><tspan
         id="tspan967"
         y="2451.2654"
         x="224.60757"
         style="font-style:normal;font-variant:normal;font-weight:normal;font-stretch:normal;font-size:58.23202896px;line-height:1;font-family:'Nanum Pen Script OTF';-inkscape-font-specification:'Nanum Pen Script OTF';stroke-width:1.29404509"
         sodipodi:role="line">그래.</tspan></text>
    <text
       id="text981"
       y="2528.2588"
       x="295.85907"
       style="font-style:normal;font-variant:normal;font-weight:normal;font-stretch:normal;font-size:14.71796417px;line-height:1;font-family:'Nanum Pen Script OTF';-inkscape-font-specification:'Nanum Pen Script OTF';text-align:center;letter-spacing:0px;word-spacing:0px;text-anchor:middle;fill:#000000;fill-opacity:1;stroke:none;stroke-width:1.22649705"
       xml:space="preserve"><tspan
         y="2528.2588"
         x="295.85907"
         style="font-style:normal;font-variant:normal;font-weight:normal;font-stretch:normal;font-size:55.19236755px;line-height:1;font-family:'Nanum Pen Script OTF';-inkscape-font-specification:'Nanum Pen Script OTF';stroke-width:1.22649705"
         sodipodi:role="line"
         id="tspan1086">잠시 쉬면서</tspan><tspan
         y="2583.4512"
         x="295.85907"
         style="font-style:normal;font-variant:normal;font-weight:normal;font-stretch:normal;font-size:55.19236755px;line-height:1;font-family:'Nanum Pen Script OTF';-inkscape-font-specification:'Nanum Pen Script OTF';stroke-width:1.22649705"
         sodipodi:role="line"
         id="tspan1090">다른 거 생각하고</tspan><tspan
         y="2638.6436"
         x="295.85907"
         style="font-style:normal;font-variant:normal;font-weight:normal;font-stretch:normal;font-size:55.19236755px;line-height:1;font-family:'Nanum Pen Script OTF';-inkscape-font-specification:'Nanum Pen Script OTF';stroke-width:1.22649705"
         sodipodi:role="line"
         id="tspan1092">있어 봐.</tspan></text>
    <text
       id="text985"
       y="2543.9561"
       x="599.93365"
       style="font-style:normal;font-variant:normal;font-weight:normal;font-stretch:normal;font-size:13.01014996px;line-height:1;font-family:'Nanum Pen Script OTF';-inkscape-font-specification:'Nanum Pen Script OTF';text-align:center;letter-spacing:0px;word-spacing:0px;text-anchor:middle;fill:#000000;fill-opacity:1;stroke:none;stroke-width:1.08417916"
       xml:space="preserve"><tspan
         id="tspan983"
         y="2543.9561"
         x="599.93365"
         style="font-style:normal;font-variant:normal;font-weight:normal;font-stretch:normal;font-size:48.78806686px;line-height:1;font-family:'Nanum Pen Script OTF';-inkscape-font-specification:'Nanum Pen Script OTF';stroke-width:1.08417916"
         sodipodi:role="line">알겠어.</tspan></text>
    <text
       id="text993"
       y="2421.6614"
       x="924.04114"
       style="font-style:normal;font-variant:normal;font-weight:normal;font-stretch:normal;font-size:14.83119774px;line-height:1;font-family:'Nanum Pen Script OTF';-inkscape-font-specification:'Nanum Pen Script OTF';text-align:center;letter-spacing:0px;word-spacing:0px;text-anchor:middle;fill:#000000;fill-opacity:1;stroke:none;stroke-width:1.23593318"
       xml:space="preserve"><tspan
         id="tspan991"
         y="2421.6614"
         x="924.04114"
         style="font-style:normal;font-variant:normal;font-weight:normal;font-stretch:normal;font-size:55.61699295px;line-height:1;font-family:'Nanum Pen Script OTF';-inkscape-font-specification:'Nanum Pen Script OTF';stroke-width:1.23593318"
         sodipodi:role="line">아! 내가 얼마</tspan><tspan
         y="2477.2783"
         x="924.04114"
         style="font-style:normal;font-variant:normal;font-weight:normal;font-stretch:normal;font-size:55.61699295px;line-height:1;font-family:'Nanum Pen Script OTF';-inkscape-font-specification:'Nanum Pen Script OTF';stroke-width:1.23593318"
         sodipodi:role="line"
         id="tspan1099">전에 만든 발명품</tspan><tspan
         y="2532.8953"
         x="924.04114"
         style="font-style:normal;font-variant:normal;font-weight:normal;font-stretch:normal;font-size:55.61699295px;line-height:1;font-family:'Nanum Pen Script OTF';-inkscape-font-specification:'Nanum Pen Script OTF';stroke-width:1.23593318"
         sodipodi:role="line"
         id="tspan1105"> 보여 줄까?</tspan></text>
    <text
       id="text1003"
       y="2425.2837"
       x="2015.1196"
       style="font-style:normal;font-variant:normal;font-weight:normal;font-stretch:normal;font-size:15.3365097px;line-height:1;font-family:'Nanum Pen Script OTF';-inkscape-font-specification:'Nanum Pen Script OTF';text-align:center;letter-spacing:0px;word-spacing:0px;text-anchor:middle;fill:#000000;fill-opacity:1;stroke:none;stroke-width:1.27804255"
       xml:space="preserve"><tspan
         id="tspan1001"
         y="2425.2837"
         x="2015.1196"
         style="font-style:normal;font-variant:normal;font-weight:normal;font-stretch:normal;font-size:57.5119133px;line-height:1;font-family:'Nanum Pen Script OTF';-inkscape-font-specification:'Nanum Pen Script OTF';stroke-width:1.27804255"
         sodipodi:role="line">여기 밑에</tspan><tspan
         y="2482.7957"
         x="2015.1196"
         style="font-style:normal;font-variant:normal;font-weight:normal;font-stretch:normal;font-size:57.5119133px;line-height:1;font-family:'Nanum Pen Script OTF';-inkscape-font-specification:'Nanum Pen Script OTF';stroke-width:1.27804255"
         sodipodi:role="line"
         id="tspan1109">작업실에 있어.</tspan></text>
    <text
       id="text1007"
       y="2557.2849"
       x="2118.6157"
       style="font-style:normal;font-variant:normal;font-weight:normal;font-stretch:normal;font-size:15.36279583px;line-height:1;font-family:'Nanum Pen Script OTF';-inkscape-font-specification:'Nanum Pen Script OTF';text-align:center;letter-spacing:0px;word-spacing:0px;text-anchor:middle;fill:#000000;fill-opacity:1;stroke:none;stroke-width:1.28023303"
       xml:space="preserve"><tspan
         id="tspan1005"
         y="2557.2849"
         x="2118.6157"
         style="font-style:normal;font-variant:normal;font-weight:normal;font-stretch:normal;font-size:57.61048508px;line-height:1;font-family:'Nanum Pen Script OTF';-inkscape-font-specification:'Nanum Pen Script OTF';stroke-width:1.28023303"
         sodipodi:role="line">따라 와.</tspan></text>
  </g>
</svg>
