<?xml version="1.0" encoding="UTF-8" standalone="no"?>
<!-- Created with Inkscape (http://www.inkscape.org/) -->

<svg
   xmlns:dc="http://purl.org/dc/elements/1.1/"
   xmlns:cc="http://creativecommons.org/ns#"
   xmlns:rdf="http://www.w3.org/1999/02/22-rdf-syntax-ns#"
   xmlns:svg="http://www.w3.org/2000/svg"
   xmlns="http://www.w3.org/2000/svg"
   xmlns:xlink="http://www.w3.org/1999/xlink"
   xmlns:sodipodi="http://sodipodi.sourceforge.net/DTD/sodipodi-0.dtd"
   xmlns:inkscape="http://www.inkscape.org/namespaces/inkscape"
   id="svg2"
   version="1.1"
   inkscape:version="0.91 r13725"
   width="2481"
   height="3503"
   sodipodi:docname="E24P01.svg">
  <metadata
     id="metadata8">
    <rdf:RDF>
      <cc:Work
         rdf:about="">
        <dc:format>image/svg+xml</dc:format>
        <dc:type
           rdf:resource="http://purl.org/dc/dcmitype/StillImage" />
        <dc:title />
      </cc:Work>
    </rdf:RDF>
  </metadata>
  <defs
     id="defs6">
    <filter
       style="color-interpolation-filters:sRGB"
       id="filter4375-4-1-1-1-9"
       inkscape:label="deevad outline effect">
      <feFlood
         id="feFlood4377-7-9-0-8-1"
         flood-opacity="1"
         flood-color="rgb(0,0,0)"
         result="flood" />
      <feComposite
         id="feComposite4379-3-8-8-2-77"
         in2="SourceGraphic"
         in="flood"
         operator="in"
         result="composite1" />
      <feMorphology
         id="feMorphology4393-1-0-49-8-9"
         operator="dilate"
         radius="4"
         result="result3" />
      <feComposite
         id="feComposite4385-9-5-7-0-8"
         in2="result3"
         in="SourceGraphic"
         operator="over"
         result="composite2" />
    </filter>
  </defs>
  <sodipodi:namedview
     pagecolor="#ffffff"
     bordercolor="#666666"
     borderopacity="1"
     objecttolerance="10"
     gridtolerance="10"
     guidetolerance="10"
     inkscape:pageopacity="0"
     inkscape:pageshadow="2"
     inkscape:window-width="1920"
     inkscape:window-height="1056"
     id="namedview4"
     showgrid="false"
     inkscape:zoom="0.34782609"
     inkscape:cx="930.48127"
     inkscape:cy="1122.7414"
     inkscape:window-x="0"
     inkscape:window-y="24"
     inkscape:window-maximized="1"
     inkscape:current-layer="layer1"
     inkscape:snap-global="false" />
  <g
     inkscape:groupmode="layer"
     id="layer2"
     inkscape:label="artwork"
     sodipodi:insensitive="true">
    <image
       sodipodi:absref="/home/talime/Dokumenty/lang/sk/../gfx_Pepper-and-Carrot_by-David-Revoy_E24P01.png"
       xlink:href="../gfx_Pepper-and-Carrot_by-David-Revoy_E24P01.png"
       y="0"
       x="0"
       id="image10"
       height="3503"
       width="2481" />
  </g>
  <g
     inkscape:groupmode="layer"
     id="layer3"
     inkscape:label="speechbubbles">
    <path
       style="fill:#ffffff;fill-rule:evenodd;stroke:none;stroke-width:0.99999976px;stroke-linecap:butt;stroke-linejoin:miter;stroke-opacity:1"
       d="m 500.61403,422.50445 c 42.50613,11.58294 80.9287,18.78435 67.8658,-29.25776 75.23859,65.22434 64.44564,20.55452 76.34903,4.87625 44.73208,46.07425 83.22041,39.50835 116.64433,-9.75252 18.89504,71.05647 58.43472,36.62912 93.31542,26.00689 -0.086,19.98219 -9.60888,42.89532 93.31553,30.88325 -29.42876,18.04737 -40.40582,34.43093 25.44968,43.88675 -45.74621,14.51068 -70.86923,29.95113 -21.20814,48.76313 -26.38206,27.40459 -8.7367,43.69104 27.57054,55.26473 -85.01036,1.60275 -96.04984,4.26448 -82.41143,18.46822 -72.37719,-29.20281 -50.99155,-5.09608 -44.83693,17.29131 -33.68739,-12.84249 -58.58676,-43.19698 -118.76508,-3.25078 -17.89775,-13.25752 -34.39554,-30.00188 -74.22827,11.378 -2.80992,-36.09462 -31.93256,-34.73678 -74.22824,-14.62887 -11.15573,-33.85007 -53.0458,-16.66328 -97.5571,4.87635 36.33137,-33.03837 38.96411,-60.63927 -31.81209,-76.39549 68.58808,-18.90034 56.09878,-34.14551 29.69128,-48.76302 26.08977,-13.74564 43.10059,-28.71908 -25.44966,-55.26484 40.07965,4.12689 82.75513,9.44755 40.29533,-24.3816 z"
       id="path4582"
       inkscape:connector-curvature="0"
       sodipodi:nodetypes="ccccccccccccccccccc" />
    <path
       style="color:#000000;display:inline;overflow:visible;visibility:visible;fill:#ffffff;fill-opacity:1;fill-rule:nonzero;stroke:none;stroke-width:0.99999994px;marker:none;enable-background:accumulate"
       d="m 1120.4405,700.1743 c -32.2265,-17.97546 -75.6905,-29.21797 -94.8601,-55.01638 l -18.7309,38.20697 c -21.19647,-1.31166 -26.2338,-14.07539 -36.75813,-22.95055 l -18.52445,25.72405 C 902.21848,682.47077 878.08971,666.613 844.32571,653.77368 l -19.93547,22.60875 c 41.44339,8.00317 86.22663,23.6167 121.36515,31.70826 l 22.07602,-17.34663 c 14.0695,3.48337 27.30829,7.5971 36.83679,14.52656 l 23.5694,-31.97386 z"
       id="path4032"
       inkscape:connector-curvature="0"
       sodipodi:nodetypes="cccccccccccc" />
    <path
       style="color:#000000;display:inline;overflow:visible;visibility:visible;fill:#ffffff;fill-opacity:1;fill-rule:nonzero;stroke:none;stroke-width:0.99999994px;marker:none;enable-background:accumulate"
       d="m 1373.3502,1868.2437 c 6.6851,-9.6035 35.5763,-37.7572 31.3268,-2.86 46.4175,-40.2666 78.7953,-19.5262 111.971,-2.2535 11.4973,-12.4731 16.0323,-33.3022 45.1957,-24.5731 -1.9873,-14.0664 9.629,-22.0812 33.3836,-24.6967 -29.027,-12.0387 -33.2191,-21.179 24.6468,-23.0767 -42.759,-6.3379 -82.4984,-13.2357 -27.1003,-37.773 -15.6687,-2.7585 -57.3593,18.2946 -27.5245,-55.0444 -31.1129,20.7342 -62.2582,30.3971 -90.297,-24.8989 -14.441,18.5866 -33.3418,29.9721 -60.9951,-1.4146 -10.1201,18.985 -49.1487,15.6954 -62.7522,9.8432 25.1172,25.8757 21.8709,39.5499 -17.5185,36.7247 58.9158,48.3718 6.4035,35.5263 -5.8106,44.3362 49.1464,20.3406 23.3399,34.5624 11.3904,50.4926 58.9887,8.1069 35.1654,33.0527 34.0839,55.1942 z"
       id="path3549-3"
       inkscape:connector-curvature="0"
       sodipodi:nodetypes="ccccccccccccccc" />
    <path
       style="color:#000000;display:inline;overflow:visible;visibility:visible;fill:#ffffff;fill-opacity:1;fill-rule:nonzero;stroke:none;stroke-width:0.99999988px;marker:none;enable-background:accumulate"
       d="m 1335.6894,1948.0036 c 5.3962,-75.8195 89.6777,-136.0769 278.2367,-119.3503 101.0027,8.9596 228.6773,11.5576 221.9434,122.6433 -6.7336,111.0853 -184.5252,109.9946 -218.5214,112.1526 -33.9966,2.1584 -219.36,-2.3501 -250.5934,-40.5729 -19.5521,-23.9266 -31.4635,-51.3744 -31.0653,-74.8727 z"
       id="path4546-6"
       inkscape:connector-curvature="0"
       sodipodi:nodetypes="cssssc" />
    <path
       style="color:#000000;display:inline;overflow:visible;visibility:visible;fill:#ffffff;fill-opacity:1;fill-rule:nonzero;stroke:none;stroke-width:1px;marker:none;enable-background:accumulate"
       d="m 1725.1844,1861.3342 c 6.612,11.2759 86.9477,-29.2003 85.8796,-32.4046 0,0 27.5174,7.7754 31.5141,6.9248 1.9994,-6.4636 4.2729,-17.2204 4.2729,-17.2204 l 43.1705,1.271 -34.6999,8.0734 0.1804,21.2585 -36.6531,-7.0896 c -19.044,13.242 -51.208,25.1719 -50.7716,40.3619 z"
       id="path4448"
       inkscape:connector-curvature="0"
       sodipodi:nodetypes="cccccccccc" />
    <path
       style="color:#000000;display:inline;overflow:visible;visibility:visible;fill:#ffffff;fill-opacity:1;fill-rule:nonzero;stroke:none;stroke-width:0.99999994px;marker:none;enable-background:accumulate"
       d="m 31.509687,3117.6967 c 47.694439,12.8956 43.678271,60.0141 30.695054,76.2802 53.368669,-58.1065 81.310729,-36.0657 54.140089,22.3565 92.81286,-80.1931 125.09522,-22.6536 109.49517,8.5372 39.20726,-64.6436 110.52529,-69.0567 147.447,0.8206 23.28855,-84.38 55.7994,-52.863 100.29592,-31.9825 -33.7951,-31.7206 -53.28977,-63.1034 37.49262,-103.6934 -48.65641,11.7542 -96.62322,-29.416 -12.97691,-62.224 -82.93307,-1.5769 -88.76437,-47.4509 -0.69828,-68.9257 -85.53795,0.1566 -83.52389,-30.7557 -44.48652,-70.3231 -60.04243,11.0453 -74.99675,-25.3751 -18.93094,-83.687 -93.96117,52.4613 -98.6034,20.0675 -92.331,-47.5051 -53.01194,73.9893 -48.6376,39.5163 -59.2484,-30.5884 -11.18054,51.539 -39.94198,90.0515 -99.34188,29.8847 9.15192,33.4956 -4.06777,71.378 -85.209585,33.1579 43.421915,40.2755 74.601255,109.3581 -51.903546,108.4591 59.024751,26.6135 83.756831,65.4893 2.795886,73.7969 32.374391,8.7533 40.857761,33.251 38.931995,53.1912 -14.581654,6.4126 -33.951512,12.6202 -58.962571,18.6481 47.159467,18.1118 77.084901,41.3943 2.795898,73.7968 z"
       id="path3549-3-7"
       inkscape:connector-curvature="0"
       sodipodi:nodetypes="cccccccccccccccccccc" />
    <path
       style="fill:#ffffff;stroke:none;stroke-width:1"
       d="m 1312.0471,2636.6402 c 24.8572,-23.3618 23.0898,-34.098 20.1693,-46.0928 -2.9204,-11.9949 -6.7783,-22.4564 -2.996,-29.6912 3.7822,-7.2345 11.9314,-13.7504 18.5182,-17.7105 6.5867,-3.9602 0.6895,-11.8462 0.1992,-20.4782 -0.4905,-8.632 11.6694,-54.4912 11.6694,-54.4912 0,0 15.4128,29.8223 17.3984,40.7257 1.9857,10.9032 2.7616,14.8752 2.4762,19.5352 -0.2855,4.6599 -2.4809,16.1126 -8.3834,22.0982 -5.9026,5.9855 -13.8607,8.5198 -19.1677,11.9592 -5.307,3.4394 -4.2207,13.2301 -3.7625,22.963 0.4583,9.7331 -0.6146,16.9839 -10.2491,30.0137 -8.2583,11.169 -25.872,21.1689 -25.872,21.1689 z"
       id="path3023-2"
       inkscape:connector-curvature="0"
       sodipodi:nodetypes="csssscssssssc" />
    <path
       style="color:#000000;display:inline;overflow:visible;visibility:visible;fill:#ffffff;fill-opacity:1;fill-rule:nonzero;stroke:none;stroke-width:0.99999994px;marker:none;enable-background:accumulate"
       d="m 1316.0029,3034.7179 c 5.2109,-36.069 14.5234,-83.1655 -40.179,-91.5576 2.7742,1.4246 74.681,-16.1526 71.113,92.3401 -3.568,108.4926 -13.868,120.9339 -13.868,120.9339 z"
       id="path4064"
       inkscape:connector-curvature="0"
       sodipodi:nodetypes="ccscc" />
    <path
       style="color:#000000;display:inline;overflow:visible;visibility:visible;fill:#ffffff;fill-opacity:1;fill-rule:nonzero;stroke:none;stroke-width:1px;marker:none;enable-background:accumulate"
       d="m 1077.2562,3295.7847 c -1.1856,-61.9807 37.6091,-99.5237 45.0474,-104.6787 67.1345,-46.525 276.2566,-29.3302 312.9622,2.7546 30.822,26.1698 37.9349,44.0753 34.3784,67.4904 -3.5564,23.4149 -22.5239,85.3957 -66.386,103.3013 -43.8619,17.9055 -145.8117,26.1697 -199.1577,12.3961 -53.3458,-13.7735 -131.5863,-27.5469 -126.8443,-81.2637 z"
       id="path3517"
       inkscape:connector-curvature="0"
       sodipodi:nodetypes="cscsccc" />
    <path
       style="color:#000000;display:inline;overflow:visible;visibility:visible;fill:#ffffff;fill-opacity:1;fill-rule:nonzero;stroke:none;stroke-width:1px;marker:none;enable-background:accumulate"
       d="m 1142.4257,3108.1619 c -1.2337,-31.62 22.4012,-64.5566 34.7376,-74.6749 12.3366,-10.1185 87.1974,-20.0204 115.5712,-20.0204 28.3738,0 148.4287,5.6137 169.4007,28.3802 20.9719,22.7664 45.2533,39.919 31.6833,77.863 -13.5702,37.9439 -98.6915,56.916 -117.1962,60.7103 -18.5047,3.7944 -71.5515,6.324 -88.8225,5.0593 -17.271,-1.2649 -149.075,-25.4606 -145.3741,-77.3175 z"
       id="path3357"
       inkscape:connector-curvature="0"
       inkscape:transform-center-x="-263.99311"
       inkscape:transform-center-y="-147.27939"
       sodipodi:nodetypes="ccsscccc" />
    <path
       style="fill:#ffffff;fill-rule:evenodd;stroke:none;stroke-width:0.99999988px;stroke-linecap:butt;stroke-linejoin:miter;stroke-opacity:1"
       d="m 1146.2648,2478.7083 c 8.9148,-23.8569 32.9214,-41.9579 59.049,-54.0414 12.4339,-5.8338 26.6461,-10.1089 41.1894,-8.9844 14.448,0.6719 28.5601,4.6835 43.1678,3.2901 17.7627,-0.4602 35.8372,-2.4681 53.3959,0.401 15.609,3.1306 31.6907,4.752 47.7982,4.846 11.3633,-1.9871 21.7614,3.3092 31.9096,6.4769 9.1104,3.4218 18.4159,7.0119 26.0681,12.3048 7.05,7.4302 15.4914,13.8943 22.6237,21.2583 4.6669,4.0258 4.2185,9.5866 4.0035,14.7331 -0.6061,10.5387 -1.6325,21.2437 -5.4423,31.3969 -2.2798,6.4459 -10.7065,8.5792 -17.1814,11.5412 -15.3207,6.2528 -31.5892,10.9944 -46.2109,18.3527 -14.4858,3.7677 -29.8803,2.0054 -44.7362,1.436 -12.4483,-1.1215 -24.9706,-2.6855 -37.5258,-1.3813 -15.9798,0.9544 -31.9111,3.4258 -47.9482,3.1093 -20.0899,-2.1722 -39.3306,-7.5207 -58.7995,-11.8111 -17.4671,-3.7817 -33.387,-10.8926 -48.6624,-18.4995 -8.1596,-4.3197 -16.7975,-9.3407 -19.6772,-17.3014 -2.3606,-5.4816 -2.9168,-11.3511 -3.0213,-17.1272 z"
       id="path4365"
       inkscape:connector-curvature="0" />
    <path
       style="color:#000000;display:inline;overflow:visible;visibility:visible;fill:#ffffff;fill-opacity:1;fill-rule:nonzero;stroke:none;stroke-width:0.99999988px;marker:none;enable-background:accumulate"
       d="m 2429.701,2354.2628 c -227.7935,5.8948 -427.5751,-1.9377 -558.035,-3.2663 1.0547,30.5264 -26.9881,23.2425 -53.5364,8.0328 21.136,60.7722 -13.9149,65.5133 -67.0108,36.5768 53.5911,60.6194 -0.1724,51.8671 -66.1177,13.1778 63.5882,60.3972 113.0547,116.8098 -11.7183,80.2063 73.9351,39.9915 106.9604,59.2363 39.2334,79.4435 65.9051,23.4054 53.6748,52.5762 -12.1376,56.7461 118.0508,36.2519 34.7843,53.4271 -13.4179,65.4069 133.1743,19.8008 45.2898,45.7524 -26.8429,94.8548 83.4252,-15.0891 163.3138,-33.6084 78.812,31.5598 151.3682,-37.9752 106.1133,-7.2107 22.3121,55.8419 47.8601,-19.0229 173.3142,-49.5394 136.4048,0.2227 61.0895,-31.4584 35.6725,11.4362 31.1512,36.638 7.9976,-8.2682 34.1544,-57.7448 42.7036,-24.2371 15.5844,-24.1842 28.7318,-19.4783 27.0696,14.7402 13.4418,-19.8824 45.1109,-41.0341 33.6723,0.7889 19.9118,-41.8479 24.7997,-7.6491 15.2692,25.8294 49.7806,-65.057 56.9761,-68.2664 61.5313,4.4701 20.7778,-40.9546 45.6652,-82.756 86.2786,-12.8509 0.053,-23.2388 7.1296,-62.6222 73.4803,8.8023 -26.7145,-73.4999 38.7309,-59.2302 66.4461,11.4033 -33.8243,-90.0268 9.823,-131.6258 64.7659,-37.5019 5.4021,-123.5817 31.1479,-443.4584 29.6862,-546.8854 z"
       id="path4024"
       inkscape:connector-curvature="0"
       sodipodi:nodetypes="cccccccccccccccccccccccc" />
    <path
       style="fill:#ffffff;fill-rule:evenodd;stroke:none;stroke-width:0.99999994px;stroke-linecap:butt;stroke-linejoin:miter;stroke-opacity:1"
       d="m 2320.0189,2966.9466 -102.8737,31.1414 30.781,-65.8394 -54.3109,13.511 73.467,-174.0894 -83.4186,10.4305 -22.2012,199.1888 46.5569,-15.7553 -28.3923,68.2411 z"
       id="path5002"
       inkscape:connector-curvature="0"
       sodipodi:nodetypes="cccccccccc" />
    <text
       xml:space="preserve"
       style="font-style:normal;font-variant:normal;font-weight:normal;font-stretch:normal;line-height:0%;font-family:Lavi;-inkscape-font-specification:Lavi;letter-spacing:0px;word-spacing:0px;fill:#ffffff;fill-opacity:1;stroke:#000000;stroke-width:0.57625628;stroke-miterlimit:4;stroke-dasharray:none;stroke-opacity:1;filter:url(#filter4375-4-1-1-1-9)"
       x="787.65729"
       y="1584.5073"
       id="text4580"
       transform="matrix(0.47590856,-0.23101257,-0.08785973,0.61214035,2029.4196,1281.2253)"
       sodipodi:linespacing="0%"><tspan
         sodipodi:role="line"
         id="tspan4582"
         x="787.65729"
         y="1584.5073"
         style="font-size:70px;line-height:1.25;letter-spacing:5.62810278px;fill:#ffffff;stroke-width:0.57625628;stroke-miterlimit:4;stroke-dasharray:none"><tspan
           style="font-size:80.40014648px;letter-spacing:5.62810278px;fill:#ffffff;stroke-width:0.57625628;stroke-miterlimit:4;stroke-dasharray:none"
           id="tspan4617">BAM!</tspan></tspan></text>
    <path
       style="fill:#ffffff;fill-rule:evenodd;stroke:none;stroke-width:1px;stroke-linecap:butt;stroke-linejoin:miter;stroke-opacity:1"
       d="m 606.64438,688.13568 c 53.77935,-14.71022 46.31957,20.21656 41.32639,53.14407 37.80494,-43.59903 55.26716,-29.85149 61.98961,14.17175 33.62525,-62.22579 59.25693,-30.90893 85.83175,-10.62881 1.02337,-30.58118 16.76245,-46.25269 77.88437,-15.94322 -32.19125,-44.20554 -28.66018,-71.76224 39.73691,-69.08729 -61.86013,-15.97494 -61.03687,-42.11142 -22.25267,-74.4017 -45.37354,26.89223 -74.55312,30.92349 -65.16855,-19.48617 -45.60554,49.76939 -52.18919,18.77197 -60.40013,-8.85734 -18.96237,57.85359 -45.06195,40.93556 -73.11593,3.54293 0.75602,36.0549 -10.20221,57.18925 -60.40012,28.34351 8.5968,26.18958 33.74624,62.31265 -25.43163,47.82967 31.70501,15.40054 43.05808,31.90752 0,51.3726 z"
       id="path907"
       inkscape:connector-curvature="0"
       sodipodi:nodetypes="ccccccccccccc" />
  </g>
  <g
     inkscape:groupmode="layer"
     id="layer1"
     inkscape:label="txt"
     style="display:inline">
    <path
       style="color:#000000;display:inline;overflow:visible;visibility:visible;fill:#ffffff;fill-opacity:1;fill-rule:nonzero;stroke:none;stroke-width:1px;marker:none;enable-background:accumulate"
       d="m 581.83722,3044.6997 c -16.45129,42.7371 -57.34368,52.6864 -79.08413,59.0603 -3.49561,-4.6209 -10.29733,-21.207 -10.29733,-21.207 0,0 -51.12826,31.5026 -68.86582,33.4378 -17.73755,1.9353 -19.57138,-14.8728 -19.57138,-14.8728 0,0 80.29422,-31.7712 95.58278,-42.4436 8.90084,13.0355 11.06276,18.6403 15.92522,23.5722 13.47897,-4.7946 53.36319,-19.1261 66.31066,-37.5469 z"
       id="path4456"
       inkscape:connector-curvature="0"
       sodipodi:nodetypes="cccscccc" />
    <text
       xml:space="preserve"
       style="font-style:normal;font-variant:normal;font-weight:normal;font-stretch:normal;line-height:0%;font-family:Lavi;-inkscape-font-specification:Lavi;text-align:center;letter-spacing:0px;word-spacing:0px;text-anchor:middle;fill:#000000;fill-opacity:1;stroke:none"
       x="720.86694"
       y="500.9978"
       id="text4246"
       sodipodi:linespacing="0%"><tspan
         sodipodi:role="line"
         style="font-size:45px;line-height:1.25"
         x="720.86694"
         y="500.9978"
         id="tspan4252">Čože chceš?</tspan><tspan
         sodipodi:role="line"
         style="font-size:45px;line-height:1.25"
         x="720.86694"
         y="560.53131"
         id="tspan837">Stromček svornosti?</tspan></text>
    <text
       xml:space="preserve"
       style="font-style:normal;font-variant:normal;font-weight:normal;font-stretch:normal;line-height:0%;font-family:Lavi;-inkscape-font-specification:Lavi;text-align:center;letter-spacing:0px;word-spacing:0px;text-anchor:middle;fill:#000000;fill-opacity:1;stroke:none"
       x="1577.9264"
       y="1889.9833"
       id="text4246-7"
       sodipodi:linespacing="0%"><tspan
         sodipodi:role="line"
         style="font-size:45px;line-height:1.25"
         x="1585.8365"
         y="1889.9833"
         id="tspan4410">My sme </tspan><tspan
         sodipodi:role="line"
         style="font-size:45px;line-height:1.25"
         x="1577.9264"
         y="1949.209"
         id="tspan4414">čarodejnice Chaosu;</tspan><tspan
         sodipodi:role="line"
         style="font-size:45px;line-height:1.25"
         x="1577.9264"
         y="2005.7667"
         id="tspan934">Toto my NEROBÍME.</tspan></text>
    <text
       xml:space="preserve"
       style="font-style:normal;font-variant:normal;font-weight:normal;font-stretch:normal;line-height:0%;font-family:Lavi;-inkscape-font-specification:Lavi;text-align:center;letter-spacing:0px;word-spacing:0px;text-anchor:middle;fill:#000000;fill-opacity:1;stroke:none"
       x="257.39804"
       y="2917.25"
       id="text4246-7-6"
       sodipodi:linespacing="0%"><tspan
         sodipodi:role="line"
         style="font-size:45px;line-height:1.25"
         x="257.39804"
         y="2917.25"
         id="tspan934-1">Mala by si sa</tspan><tspan
         sodipodi:role="line"
         style="font-size:45px;line-height:1.25"
         x="257.39804"
         y="2976.4758"
         id="tspan1055">radšej sústrediť</tspan><tspan
         sodipodi:role="line"
         style="font-size:45px;line-height:1.25"
         x="265.3082"
         y="3033.0334"
         id="tspan4426">na štúdium </tspan><tspan
         sodipodi:role="line"
         style="font-size:45px;line-height:1.25"
         x="257.39804"
         y="3089.2834"
         id="tspan1059">&quot;Zaklínadiel</tspan><tspan
         sodipodi:role="line"
         style="font-size:45px;line-height:1.25"
         x="257.39804"
         y="3145.5334"
         id="tspan1069"> deštrukcie&quot;!</tspan></text>
    <text
       xml:space="preserve"
       style="font-style:normal;font-variant:normal;font-weight:normal;font-stretch:normal;line-height:0%;font-family:Lavi;-inkscape-font-specification:Lavi;text-align:center;letter-spacing:0px;word-spacing:0px;text-anchor:middle;fill:#000000;fill-opacity:1;stroke:none"
       x="1309.3973"
       y="2493.7979"
       id="text4246-7-6-2"
       sodipodi:linespacing="0%"><tspan
         sodipodi:role="line"
         style="font-size:45px;line-height:1.25"
         x="1309.3973"
         y="2493.7979"
         id="tspan1069-6">Deštrukcie?</tspan></text>
    <text
       xml:space="preserve"
       style="font-style:normal;font-variant:normal;font-weight:normal;font-stretch:normal;line-height:0%;font-family:Lavi;-inkscape-font-specification:Lavi;text-align:center;letter-spacing:0px;word-spacing:0px;text-anchor:middle;fill:#000000;fill-opacity:1;stroke:none"
       x="1319.0408"
       y="3090.3787"
       id="text4246-7-6-2-0"
       sodipodi:linespacing="0%"><tspan
         sodipodi:role="line"
         style="font-size:45px;line-height:1.25"
         x="1319.0408"
         y="3090.3787"
         id="tspan4430">Teraz, v tomto</tspan><tspan
         sodipodi:role="line"
         style="font-size:45px;line-height:1.25"
         x="1319.0408"
         y="3146.6287"
         id="tspan4434">období?</tspan></text>
    <text
       xml:space="preserve"
       style="font-style:normal;font-variant:normal;font-weight:normal;font-stretch:normal;line-height:0%;font-family:Lavi;-inkscape-font-specification:Lavi;text-align:center;letter-spacing:0px;word-spacing:0px;text-anchor:middle;fill:#000000;fill-opacity:1;stroke:none"
       x="1268.27"
       y="3233.5964"
       id="text4246-7-6-2-0-5"
       sodipodi:linespacing="0%"><tspan
         sodipodi:role="line"
         style="font-size:45px;line-height:1.25"
         x="1268.27"
         y="3233.5964"
         id="tspan4441">Prečo radšej</tspan><tspan
         sodipodi:role="line"
         style="font-size:45px;line-height:1.25"
         x="1276.1802"
         y="3293.1299"
         id="tspan4445">neskúsiť mágiu </tspan><tspan
         sodipodi:role="line"
         style="font-size:45px;line-height:1.25"
         x="1268.27"
         y="3349.6877"
         id="tspan4447">tvorenia?</tspan></text>
    <text
       xml:space="preserve"
       style="font-style:normal;font-variant:normal;font-weight:normal;font-stretch:normal;line-height:0%;font-family:Lavi;-inkscape-font-specification:Lavi;text-align:center;letter-spacing:0px;word-spacing:0px;text-anchor:middle;fill:#000000;fill-opacity:1;stroke:none;stroke-width:1.60000002;stroke-miterlimit:4;stroke-dasharray:none"
       x="2089.9304"
       y="2459.3547"
       id="text4246-7-6-2-04"
       sodipodi:linespacing="0%"><tspan
         sodipodi:role="line"
         style="font-size:45px;line-height:1.25;stroke-width:1.60000002;stroke-miterlimit:4;stroke-dasharray:none"
         x="2089.9304"
         y="2459.3547"
         id="tspan4980">Ďalšie zasadanie rady Troch</tspan><tspan
         sodipodi:role="line"
         style="font-size:45px;line-height:1.25;stroke:none;stroke-width:1.60000002;stroke-miterlimit:4;stroke-dasharray:none"
         x="2089.9304"
         y="2515.9126"
         id="tspan4976">mesiacov sa už blíži,</tspan><tspan
         sodipodi:role="line"
         style="font-size:45px;line-height:1.25;stroke:none;stroke-width:1.60000002;stroke-miterlimit:4;stroke-dasharray:none"
         x="2089.9304"
         y="2572.1626"
         id="tspan5000">rovnako ako tvoje skúšky.</tspan><tspan
         sodipodi:role="line"
         style="font-size:45px;line-height:1.25;stroke:none;stroke-width:1.60000002;stroke-miterlimit:4;stroke-dasharray:none"
         x="2097.8406"
         y="2631.3882"
         id="tspan4986"> Učiť sa! Učiť sa<tspan
   style="stroke:#000000;stroke-width:1.60000002;stroke-miterlimit:4;stroke-dasharray:none;stroke-opacity:1"
   id="tspan874">! UČIŤ SA!!! </tspan></tspan><tspan
         sodipodi:role="line"
         style="font-size:45px;line-height:1.25;stroke:#000000;stroke-width:1.60000002;stroke-miterlimit:4;stroke-dasharray:none;stroke-opacity:1"
         x="2089.9304"
         y="2690.9216"
         id="tspan4992">A PRESTAŇ SA KONEČNE</tspan><tspan
         sodipodi:role="line"
         style="font-size:45px;line-height:1.25;stroke:#000000;stroke-width:1.60000002;stroke-miterlimit:4;stroke-dasharray:none;stroke-opacity:1"
         x="2089.9304"
         y="2750.4553"
         id="tspan4454">ROZPTYĽOVAŤ TAKÝMITO</tspan><tspan
         sodipodi:role="line"
         style="font-size:45px;line-height:1.25;stroke:#000000;stroke-width:1.60000002;stroke-miterlimit:4;stroke-dasharray:none;stroke-opacity:1"
         x="2089.9304"
         y="2807.0129"
         id="tspan4456">HLÚPYMI NÁPADMI!!!</tspan></text>
    <flowRoot
       xml:space="preserve"
       id="flowRoot862"
       style="font-style:normal;font-variant:normal;font-weight:normal;font-stretch:normal;font-size:0.66666669px;line-height:318.00000668%;font-family:Neuropolitical;-inkscape-font-specification:Neuropolitical;text-align:center;letter-spacing:0px;word-spacing:0px;writing-mode:lr-tb;text-anchor:middle;fill:#000000;fill-opacity:1;stroke:none;stroke-width:1px;stroke-linecap:butt;stroke-linejoin:miter;stroke-opacity:1"><flowRegion
         id="flowRegion864"><rect
           id="rect866"
           width="103.5"
           height="5.75"
           x="1181.625"
           y="3275.875" /></flowRegion><flowPara
         id="flowPara868" /></flowRoot>    <text
       xml:space="preserve"
       style="font-style:normal;font-variant:normal;font-weight:normal;font-stretch:normal;font-size:14.71681118px;line-height:0%;font-family:Lavi;-inkscape-font-specification:Lavi;text-align:center;letter-spacing:0px;word-spacing:0px;text-anchor:middle;fill:#000000;fill-opacity:1;stroke:none;stroke-width:1"
       x="875.80847"
       y="682.29504"
       id="text4246-36"
       transform="matrix(1,0,-0.17625694,1,0,0)"
       sodipodi:linespacing="0%"><tspan
         sodipodi:role="line"
         style="font-size:55.18804169px;line-height:1.25;stroke-width:1"
         x="875.80847"
         y="682.29504"
         id="tspan837-3">Tu?!?</tspan></text>
    <text
       xml:space="preserve"
       style="font-style:normal;font-variant:normal;font-weight:normal;font-stretch:normal;font-size:19.04891968px;line-height:0%;font-family:Lavi;-inkscape-font-specification:Lavi;text-align:center;letter-spacing:0px;word-spacing:0px;text-anchor:middle;fill:#000000;fill-opacity:1;stroke:none;stroke-width:1.99999988;stroke-miterlimit:4;stroke-dasharray:none"
       x="1711.0228"
       y="1822.5054"
       id="text4246-3"
       transform="matrix(1.0148714,0,-0.1559129,0.98534652,0,0)"
       sodipodi:linespacing="0%"><tspan
         sodipodi:role="line"
         style="font-size:71.43344879px;line-height:1.25;stroke:#000000;stroke-width:1.99999988;stroke-miterlimit:4;stroke-dasharray:none;stroke-opacity:1"
         x="1711.0228"
         y="1822.5054"
         id="tspan4252-6">NIE!</tspan></text>
  </g>
</svg>
