<?xml version="1.0" encoding="UTF-8" standalone="no"?>
<!-- Created with Inkscape (http://www.inkscape.org/) -->

<svg
   xmlns:dc="http://purl.org/dc/elements/1.1/"
   xmlns:cc="http://creativecommons.org/ns#"
   xmlns:rdf="http://www.w3.org/1999/02/22-rdf-syntax-ns#"
   xmlns:svg="http://www.w3.org/2000/svg"
   xmlns="http://www.w3.org/2000/svg"
   xmlns:xlink="http://www.w3.org/1999/xlink"
   xmlns:sodipodi="http://sodipodi.sourceforge.net/DTD/sodipodi-0.dtd"
   xmlns:inkscape="http://www.inkscape.org/namespaces/inkscape"
   id="svg2"
   version="1.1"
   inkscape:version="0.92.3 (unknown)"
   width="2481"
   height="3503"
   sodipodi:docname="E28P04.svg">
  <metadata
     id="metadata8">
    <rdf:RDF>
      <cc:Work
         rdf:about="">
        <dc:format>image/svg+xml</dc:format>
        <dc:type
           rdf:resource="http://purl.org/dc/dcmitype/StillImage" />
        <dc:title />
      </cc:Work>
    </rdf:RDF>
  </metadata>
  <defs
     id="defs6" />
  <sodipodi:namedview
     pagecolor="#ffffff"
     bordercolor="#666666"
     borderopacity="1"
     objecttolerance="10"
     gridtolerance="10"
     guidetolerance="10"
     inkscape:pageopacity="0"
     inkscape:pageshadow="2"
     inkscape:window-width="1871"
     inkscape:window-height="1056"
     id="namedview4"
     showgrid="false"
     inkscape:zoom="0.51498715"
     inkscape:cx="1234.6746"
     inkscape:cy="846.62306"
     inkscape:window-x="49"
     inkscape:window-y="24"
     inkscape:window-maximized="1"
     inkscape:current-layer="layer3" />
  <g
     inkscape:groupmode="layer"
     id="layer2"
     inkscape:label="artwork"
     sodipodi:insensitive="true">
    <image
       sodipodi:absref="/home/craig/projects/pepper_carrot/webcomics/new-ep28_The-Festivities/lang/en/../gfx_Pepper-and-Carrot_by-David-Revoy_E28P04.png"
       xlink:href="../gfx_Pepper-and-Carrot_by-David-Revoy_E28P04.png"
       y="0"
       x="0"
       id="image10"
       height="3503"
       width="2481" />
  </g>
  <g
     inkscape:groupmode="layer"
     id="layer3"
     inkscape:label="speechbubbles">
    <path
       style="color:#000000;display:inline;overflow:visible;visibility:visible;fill:#ffffff;fill-opacity:1;fill-rule:nonzero;stroke:none;stroke-width:1px;marker:none;enable-background:accumulate"
       d="m 210.12388,223.83585 c 4.19735,-48.91622 56.2403,-85.23859 191.7032,-77.5216 72.56123,4.13357 154.95256,6.46532 149.64555,78.11499 -5.30709,71.64958 -123.7278,71.10058 -148.17296,73.04133 -24.44518,1.94083 -151.77826,-4.17821 -174.06791,-28.28814 -13.95281,-15.09218 -19.49283,-30.20693 -19.10788,-45.34658 z"
       id="path4546-6"
       inkscape:connector-curvature="0"
       sodipodi:nodetypes="cssssc" />
    <path
       style="color:#000000;display:inline;overflow:visible;visibility:visible;fill:#ffffff;fill-opacity:1;fill-rule:nonzero;stroke:none;stroke-width:1px;marker:none;enable-background:accumulate"
       d="m 522.95156,341.83676 c -42.01307,-12.55848 -55.95663,-19.27588 -57.24338,-67.82246 -1.28666,-48.54662 -20.9759,-45.84166 -20.9759,-45.84166 l -18.70982,30.00689 c 0,0 10.61745,102.6107 96.9291,83.65723 z"
       id="path3072"
       inkscape:connector-curvature="0" />
    <path
       style="fill:#ffffff;fill-opacity:1;stroke:none;stroke-width:0.99999994"
       d="m 1151.2261,905.00661 c -5.3514,-95.23342 51.3734,-126.61703 200.1423,-122.28824 148.769,4.32872 183.8125,71.08928 183.4489,106.30139 -0.6394,61.90355 -24.9195,109.87613 -93.5453,130.98774 -69.7439,21.4555 -219.6995,-0.028 -254.0873,-30.86354 -24.7277,-22.17333 -34.8884,-59.24685 -35.9586,-84.13735 z"
       id="path3238"
       inkscape:connector-curvature="0"
       sodipodi:nodetypes="cssssc" />
    <path
       style="color:#000000;display:inline;overflow:visible;visibility:visible;fill:#ffffff;fill-opacity:1;fill-rule:nonzero;stroke:none;stroke-width:0.99999994px;marker:none;enable-background:accumulate"
       d="m 1175.4723,682.1112 c 34.7329,38.27016 64.5691,78.79926 54.8799,117.70732 -13.6965,54.99989 -10.726,29.32855 -10.726,29.32855 l 41.7126,-34.95436 c 4.0951,1.46037 9.4953,-48.63749 -85.8665,-112.08151 z"
       id="path3072-1"
       inkscape:connector-curvature="0"
       sodipodi:nodetypes="csccc" />
    <path
       style="color:#000000;display:inline;overflow:visible;visibility:visible;fill:#ffffff;fill-opacity:1;fill-rule:nonzero;stroke:none;stroke-width:0.99999994px;marker:none;enable-background:accumulate"
       d="m 2291.4877,450.89458 c -77.1276,67.87142 -160.9429,19.91626 -185.7696,-22.61657 -24.8267,-42.53276 -37.8144,-180.26762 -10.429,-234.22711 27.3854,-53.95957 56.5775,-79.89305 129.1806,-78.93603 152.2955,11.05397 129.3221,274.02102 67.018,335.77971 z"
       id="path4040"
       inkscape:connector-curvature="0"
       sodipodi:nodetypes="csscc" />
    <path
       style="fill:#ffffff;fill-rule:evenodd;stroke:none;stroke-width:1px;stroke-linecap:butt;stroke-linejoin:miter;stroke-opacity:1"
       d="m 2225.5311,455.84845 c -14.8967,27.78135 -16.9465,32.37624 -16.1948,38.97929 0.7516,6.60305 14.7438,14.22693 10.5567,29.15096 -4.1871,14.92405 -44.8499,20.68957 -49.7351,27.13164 -4.8851,6.44207 -11.8101,18.46724 -11.8101,18.46724 0,0 2.4424,-19.675 10.1459,-26.03657 7.7035,-6.36158 35.547,-9.20723 35.9762,-24.23858 0.4293,-15.03135 -15.9529,-17.03818 -15.6309,-28.31169 0.3219,-11.27351 11.4609,-40.56398 11.4609,-40.56398 z"
       id="path922"
       inkscape:connector-curvature="0"
       sodipodi:nodetypes="ccsccscccc" />
    <path
       style="color:#000000;display:inline;overflow:visible;visibility:visible;fill:#ffffff;fill-opacity:1;fill-rule:nonzero;stroke:none;stroke-width:0.99999994px;marker:none;enable-background:accumulate"
       d="m 734.90542,1229.632 c -0.77478,-34.7828 45.08893,-64.8665 97.7742,-67.2653 52.68519,-2.3988 91.04372,27.0673 95.69239,63.0495 4.64873,35.9823 -46.48691,70.7651 -92.19912,71.9645 -45.7122,1.1994 -102.25787,-1.817 -101.26747,-67.7487 z"
       id="path3565"
       inkscape:connector-curvature="0"
       sodipodi:nodetypes="cscsc" />
    <path
       style="fill:#ffffff;fill-opacity:1;stroke:none;stroke-width:1.03619754"
       d="m 1084.5733,1250.6814 c -2.5731,-33.1575 14.4936,-49.6518 30.0329,-57.4653 19.6939,-9.9025 131.4897,-30.3375 178.9069,6.8159 24.229,18.9845 27.0066,72.5563 -20.1388,95.7706 -47.1455,23.2142 -125.828,10.4987 -139.2215,6.278 -13.3936,-4.2208 -46.9008,-15.5227 -49.5795,-51.3992 z"
       id="path3659-8"
       inkscape:connector-curvature="0"
       sodipodi:nodetypes="cssssc" />
    <path
       style="color:#000000;display:inline;overflow:visible;visibility:visible;fill:#ffffff;fill-opacity:1;fill-rule:nonzero;stroke:none;stroke-width:1px;marker:none;enable-background:accumulate"
       d="m 733.16505,1319.6969 c -2.06017,-35.1093 9.56308,-59.5342 43.79803,-73.1567 34.23496,-13.6225 37.09775,-0.1251 37.09775,-0.1251 0,0 -71.83863,17.444 -80.89578,73.2818 z"
       id="path5002"
       inkscape:connector-curvature="0"
       sodipodi:nodetypes="cscc" />
    <path
       style="color:#000000;display:inline;overflow:visible;visibility:visible;fill:#ffffff;fill-opacity:1;fill-rule:nonzero;stroke:none;stroke-width:1px;marker:none;enable-background:accumulate"
       d="m 1183.1205,1346.6307 c 22.0187,-23.7251 28.5842,-33.5373 15.2378,-70.8777 -13.3464,-37.3404 -0.5267,-41.9284 -0.5267,-41.9284 l 20.1693,16.498 c 0,0 23.3832,81.59 -34.8804,96.3081 z"
       id="path3072-9"
       inkscape:connector-curvature="0" />
    <path
       style="fill:#ffffff;fill-rule:evenodd;stroke:none;stroke-width:1.0339154px;stroke-linecap:butt;stroke-linejoin:miter;stroke-opacity:1"
       d="m 174.51152,2099.9165 -39.21543,6.6225 c 21.94538,-23.1129 21.3879,-35.5927 22.46138,-48.8432 -4.44266,-52.1898 -13.84079,-47.4185 -21.11062,-67.111 l 17.71435,8.5509 c 9.34214,-26.6884 -9.11781,-53.101 -15.83761,-79.6301 l 21.96862,24.7156 c 19.68249,-18.0643 5.70568,-35.7946 2.08128,-53.6277 l 32.67533,13.3891 c 12.97964,-10.102 -1.16646,-19.9352 -8.4793,-29.836 l 57.09048,15.6403 231.63735,-4.7918 45.8578,-17.9085 c -11.23124,10.5076 -28.13644,21.7251 -11.85692,28.7911 l 22.98735,-3.9681 -2.54884,13.7387 c 25.6835,3.5269 46.75102,-9.1883 68.889,-18.137 l -10.51678,27.5312 28.45029,-0.2824 -25.2878,38.8979 c -5.72082,22.681 -0.13624,36.7547 16.75406,42.2206 -25.90659,4.5624 -22.33024,12.702 -24.15218,20.1865 l 1.0958,93.4899 16.68103,35.9881 -27.24162,-12.1965 11.23268,33.5488 -43.4989,-12.0351 11.04275,17.3438 -48.8888,-9.4883 17.90429,24.7558 c -18.74008,-7.2939 -14.2099,-14.8191 -72.06608,-21.725 -46.70375,-0.014 -66.4672,-6.509 -151.72022,2.7522 l -20.19012,11.4204 9.32272,-13.8059 -51.27692,17.9622 21.36958,-26.3921 -59.62473,-0.6551 c 0.5574,-7.2801 -20.35927,2.7487 -44.53225,15.4019 l 26.75945,-28.9389 -25.72612,1.5019 22.70976,-27.6522 -17.56826,3.9144 z"
       id="path1035"
       inkscape:connector-curvature="0"
       sodipodi:nodetypes="ccccccccccccccccccccccccccccccccccccccccccc" />
    <path
       style="color:#000000;display:inline;overflow:visible;visibility:visible;fill:#ffffff;fill-opacity:1;fill-rule:nonzero;stroke:none;stroke-width:0.99999994px;marker:none;enable-background:accumulate"
       d="m 338.82946,2155.5995 c -3.16206,31.9356 -4.43517,74.4334 -68.81805,64.0726 3.51709,-0.3132 80.93631,37.3214 104.22702,-54.8867 23.29069,-92.2081 14.70299,-105.929 14.70299,-105.929 z"
       id="path4064"
       inkscape:connector-curvature="0"
       sodipodi:nodetypes="ccscc" />
    <path
       style="color:#000000;display:inline;overflow:visible;visibility:visible;fill:#ffffff;fill-opacity:1;fill-rule:nonzero;stroke:none;stroke-width:1.22835612px;marker:none;enable-background:accumulate"
       d="m 941.99019,2637.9916 c -0.92487,-27.2492 15.72223,-45.7786 24.97071,-54.4983 9.2485,-8.7198 67.5133,-28.3392 88.7848,-28.3392 58.3639,5.516 162.3115,22.2511 150.749,91.5574 -10.1734,32.699 -73.9872,49.0484 -87.86,52.3183 -13.8726,3.2701 -53.6408,5.4498 -66.5885,4.36 -12.9479,-1.0899 -112.8305,-20.7095 -110.05601,-65.3982 z"
       id="path3357"
       inkscape:connector-curvature="0"
       sodipodi:nodetypes="ccccccc" />
    <path
       style="color:#000000;display:inline;overflow:visible;visibility:visible;fill:#ffffff;fill-opacity:1;fill-rule:nonzero;stroke:none;stroke-width:1px;marker:none;enable-background:accumulate"
       d="m 1053.2112,2471.8445 c 42.5987,37.8297 30.7948,49.4495 1.1602,86.9531 -29.6347,37.5034 -12.8142,47.7305 -12.8142,47.7305 l 33.2898,-11.0238 c 0,0 79.1436,-73.4446 -21.6358,-123.6598 z"
       id="path3072-92"
       inkscape:connector-curvature="0"
       sodipodi:nodetypes="cccccc" />
    <path
       style="fill:#ffffff;fill-opacity:1;stroke:none;stroke-width:1"
       d="m 2198.3032,1950.6682 c -1.7012,-22.1072 9.5818,-33.1046 19.855,-38.3141 13.0198,-6.6023 87.2062,-21.4795 113.5776,12.0631 12.352,15.711 22.5534,40.8571 -8.6148,56.3349 -31.1683,15.4776 -83.1858,6.9998 -92.0404,4.1857 -8.8546,-2.8142 -31.0066,-10.3495 -32.7774,-34.2696 z"
       id="path3659-8-0"
       inkscape:connector-curvature="0"
       sodipodi:nodetypes="cssssc" />
    <path
       style="fill:#ffffff;fill-rule:evenodd;stroke:none;stroke-width:1px;stroke-linecap:butt;stroke-linejoin:miter;stroke-opacity:1"
       d="m 2158.973,2015.597 c 29.9739,-13.444 31.8142,4.3615 43.8953,-5.5877 12.0812,-9.9492 3.4362,-12.2178 5.1399,-20.7066 2.171,-8.4889 24.5711,-4.2249 30.967,-10.6208 6.3959,-6.3959 -16.7539,-25.6227 -26.703,-18.5161 -9.9492,7.1066 -13.9892,9.5599 -18.2727,17.5621 -2.8816,7.0675 8.1387,18.2141 1.0325,24.61 -7.1066,6.3959 -7.6324,-2.3754 -19.7136,1.1779 -12.0811,3.5533 -16.345,12.0812 -16.345,12.0812 z"
       id="path1097"
       inkscape:connector-curvature="0"
       sodipodi:nodetypes="cccsccsccc" />
    <path
       style="color:#000000;display:inline;overflow:visible;visibility:visible;fill:#ffffff;fill-opacity:1;fill-rule:nonzero;stroke:none;stroke-width:1px;marker:none;enable-background:accumulate"
       d="m 1958.2381,2441.3355 c 23.3344,-65.8654 46.2541,-75.7614 179.1815,-72.0565 132.9275,3.7051 149.849,0.041 190.7497,33.3447 37.7893,30.7696 35.6135,177.2545 21.98,246.7226 -13.6336,69.4681 -59.4722,101.3368 -189.8434,95.7794 -130.3712,-5.5575 -122.8271,-4.7333 -159.5172,-41.795 -50.0686,-50.5756 -65.8851,-196.1298 -42.5506,-261.9952 z"
       id="path4530"
       inkscape:connector-curvature="0"
       sodipodi:nodetypes="zsssssz" />
    <path
       style="fill:#ffffff;fill-rule:evenodd;stroke:none;stroke-width:1px;stroke-linecap:butt;stroke-linejoin:miter;stroke-opacity:1"
       d="m 2042.5127,2831.6145 c 73.9706,-26.3006 87.1209,-92.0523 87.1209,-133.147 0,-41.0948 -31.232,-85.4771 -31.232,-85.4771 l -19.7255,27.9444 c 0,0 1.6438,4.9314 6.5751,44.3824 4.9314,39.4509 31.2321,82.1895 -42.7385,146.2973 z"
       id="path1167"
       inkscape:connector-curvature="0" />
    <path
       style="fill:#ffffff;fill-rule:evenodd;stroke:none;stroke-width:1.1536808px;stroke-linecap:butt;stroke-linejoin:miter;stroke-opacity:1"
       d="m 819.62267,3170.8368 -42.85313,7.5457 c 23.98107,-26.3348 23.37188,-40.5543 24.54494,-55.6519 -4.85478,-59.465 -15.1247,-54.0286 -23.06889,-76.4662 l 19.35757,9.7429 c 10.20873,-30.4087 -9.96358,-60.5032 -17.30673,-90.7305 l 24.00647,28.161 c 21.50826,-20.5825 6.23494,-40.7844 2.27434,-61.1034 l 35.70634,15.2556 c 14.18366,-11.5102 -1.27466,-22.7142 -9.26585,-33.9951 l 62.38628,17.8205 253.12439,-5.4598 50.1116,-20.4049 c -12.273,11.9723 -30.7464,24.7536 -12.9567,32.8045 l 25.1197,-4.5212 -2.7854,15.6539 c 28.066,4.0185 51.0878,-10.4692 75.2793,-20.6653 l -11.4923,31.369 31.0894,-0.3218 -27.6335,44.3203 c -6.2515,25.8427 -0.1489,41.8782 18.3081,48.1061 -28.3096,5.1984 -24.4015,14.4726 -26.3925,23.0004 l 1.1975,106.5223 18.2284,41.0048 -29.7687,-13.8967 12.2747,38.2255 -47.534,-13.7128 12.0671,19.7615 -53.4237,-10.8109 19.5651,28.2067 c -20.4784,-8.3107 -15.528,-16.8849 -78.7511,-24.7534 -51.0361,-0.016 -72.6328,-7.4164 -165.79411,3.1358 l -22.06291,13.0124 10.1875,-15.7304 -56.03344,20.4661 23.35185,-30.0711 -65.15561,-0.7465 c 0.60911,-8.2949 -22.24783,3.1319 -48.66312,17.549 l 29.2417,-32.973 -28.11252,1.7113 24.81634,-31.5069 -19.19791,4.46 z"
       id="path1035-3"
       inkscape:connector-curvature="0"
       sodipodi:nodetypes="ccccccccccccccccccccccccccccccccccccccccccc" />
    <path
       style="color:#000000;display:inline;overflow:visible;visibility:visible;fill:#ffffff;fill-opacity:1;fill-rule:nonzero;stroke:none;stroke-width:0.99999994px;marker:none;enable-background:accumulate"
       d="m 1050.5247,3227.0742 c 3.1621,31.9356 4.4352,74.4334 68.8181,64.0726 -3.5171,-0.3132 -80.9363,37.3214 -104.227,-54.8867 -23.29076,-92.2081 -14.7031,-105.929 -14.7031,-105.929 z"
       id="path4064-6"
       inkscape:connector-curvature="0"
       sodipodi:nodetypes="ccscc" />
    <text
       xml:space="preserve"
       style="font-style:normal;font-variant:normal;font-weight:normal;font-stretch:normal;line-height:0%;font-family:Lavi;-inkscape-font-specification:Lavi;text-align:center;letter-spacing:0px;word-spacing:0px;text-anchor:middle;fill:#000000;fill-opacity:1;stroke:none"
       x="1034.6172"
       y="3002.28"
       id="text4246-3-3-75"><tspan
         sodipodi:role="line"
         style="font-size:45px;line-height:1.20000005"
         x="1034.6172"
         y="3002.28"
         id="tspan1033-29">Miss Saffron!</tspan><tspan
         sodipodi:role="line"
         style="font-size:45px;line-height:1.20000005"
         x="1034.6172"
         y="3056.28"
         id="tspan6909">Hereva Style Gazette.</tspan><tspan
         sodipodi:role="line"
         style="font-size:45px;line-height:1.20000005"
         x="1034.6172"
         y="3110.28"
         id="tspan6844">Which designer</tspan><tspan
         sodipodi:role="line"
         style="font-size:45px;line-height:1.20000005"
         x="1034.6172"
         y="3164.28"
         id="tspan6846">are you wearing</tspan><tspan
         sodipodi:role="line"
         style="font-size:45px;line-height:1.20000005"
         x="1034.6172"
         y="3218.28"
         id="tspan6848">tonight?</tspan></text>
  </g>
  <g
     inkscape:groupmode="layer"
     id="layer1"
     inkscape:label="txt">
    <text
       xml:space="preserve"
       style="font-style:normal;font-variant:normal;font-weight:normal;font-stretch:normal;line-height:0%;font-family:Lavi;-inkscape-font-specification:Lavi;text-align:center;letter-spacing:0px;word-spacing:0px;text-anchor:middle;fill:#000000;fill-opacity:1;stroke:none"
       x="385.53223"
       y="230.28159"
       id="text4246"><tspan
         sodipodi:role="line"
         style="font-size:45px;line-height:1.20000005"
         x="385.53223"
         y="230.28159"
         id="tspan4252">Oh! It's you!</tspan></text>
    <text
       xml:space="preserve"
       style="font-style:normal;font-variant:normal;font-weight:normal;font-stretch:normal;line-height:0%;font-family:Lavi;-inkscape-font-specification:Lavi;text-align:center;letter-spacing:0px;word-spacing:0px;text-anchor:middle;fill:#000000;fill-opacity:1;stroke:none"
       x="1342.2632"
       y="866.62921"
       id="text4246-3"><tspan
         sodipodi:role="line"
         style="font-size:45px;line-height:1.20000005"
         x="1342.2632"
         y="866.62921"
         id="tspan4252-6">I was deep</tspan><tspan
         sodipodi:role="line"
         style="font-size:45px;line-height:1.20000005"
         x="1342.2632"
         y="920.62921"
         id="tspan841">in my own</tspan><tspan
         sodipodi:role="line"
         style="font-size:45px;line-height:1.20000005"
         x="1342.2632"
         y="974.62921"
         id="tspan843">thoughts.</tspan></text>
    <text
       xml:space="preserve"
       style="font-style:normal;font-variant:normal;font-weight:normal;font-stretch:normal;font-size:16.56267548px;line-height:0%;font-family:Lavi;-inkscape-font-specification:Lavi;text-align:center;letter-spacing:0px;word-spacing:0px;text-anchor:middle;fill:#ffffff;fill-opacity:1;stroke:#ffffff;stroke-width:0.4101558;stroke-miterlimit:4;stroke-dasharray:none;stroke-opacity:1;opacity:0.6;"
       x="732.62769"
       y="780.9256"
       id="text4246-8"
       transform="matrix(0.97558614,-0.48724083,-0.02659511,1.0383073,0,0)"><tspan
         sodipodi:role="line"
         style="font-size:42.45798111px;line-height:1.25;fill:#ffffff;stroke:#ffffff;stroke-width:0.4101558;stroke-miterlimit:4;stroke-dasharray:none;stroke-opacity:1;"
         x="732.62769"
         y="780.9256"
         id="tspan4150-8">rub</tspan><tspan
         sodipodi:role="line"
         style="font-size:42.45798111px;line-height:1.25;fill:#ffffff;stroke:#ffffff;stroke-width:0.4101558;stroke-miterlimit:4;stroke-dasharray:none;stroke-opacity:1;"
         x="732.62769"
         y="833.99805"
         id="tspan877">rub</tspan></text>
    <text
       xml:space="preserve"
       style="font-style:normal;font-variant:normal;font-weight:normal;font-stretch:normal;line-height:0%;font-family:Lavi;-inkscape-font-specification:Lavi;text-align:center;letter-spacing:0px;word-spacing:0px;text-anchor:middle;fill:#000000;fill-opacity:1;stroke:none"
       x="2213.77"
       y="211.31627"
       id="text4246-3-7"><tspan
         sodipodi:role="line"
         style="font-size:45px;line-height:1.20000005"
         x="2213.77"
         y="211.31627"
         id="tspan914">I'm going</tspan><tspan
         sodipodi:role="line"
         style="font-size:45px;line-height:1.20000005"
         x="2213.77"
         y="265.31628"
         id="tspan7120">inside. It's</tspan><tspan
         sodipodi:role="line"
         style="font-size:45px;line-height:1.20000005"
         x="2213.77"
         y="319.31628"
         id="tspan7122">getting</tspan><tspan
         sodipodi:role="line"
         style="font-size:45px;line-height:1.20000005"
         x="2213.77"
         y="373.31628"
         id="tspan7124">cold out</tspan><tspan
         sodipodi:role="line"
         style="font-size:45px;line-height:1.20000005"
         x="2213.77"
         y="427.31628"
         id="tspan7126">here.</tspan></text>
    <text
       xml:space="preserve"
       style="font-style:normal;font-variant:normal;font-weight:normal;font-stretch:normal;font-size:10.0168314px;line-height:0%;font-family:Lavi;-inkscape-font-specification:Lavi;text-align:center;letter-spacing:0px;word-spacing:0px;text-anchor:middle;fill:#000000;fill-opacity:1;stroke:none;stroke-width:1"
       x="1193.0027"
       y="1232.226"
       id="text4246-3-6"><tspan
         sodipodi:role="line"
         style="font-style:italic;font-variant:normal;font-weight:normal;font-stretch:normal;font-size:37.56311798px;line-height:1.20000005;font-family:Lavi;-inkscape-font-specification:'Lavi Italic';stroke-width:1.19798362"
         x="1193.0027"
         y="1232.226"
         id="tspan843-1">Hurry!</tspan><tspan
         sodipodi:role="line"
         style="font-style:italic;font-variant:normal;font-weight:normal;font-stretch:normal;font-size:37.56311798px;line-height:1.20000005;font-family:Lavi;-inkscape-font-specification:'Lavi Italic';stroke-width:1.19798362"
         x="1193.0027"
         y="1277.3016"
         id="tspan953">She's here!</tspan></text>
    <text
       xml:space="preserve"
       style="font-style:normal;font-variant:normal;font-weight:normal;font-stretch:normal;font-size:10.0168314px;line-height:0%;font-family:Lavi;-inkscape-font-specification:Lavi;text-align:center;letter-spacing:0px;word-spacing:0px;text-anchor:middle;fill:#000000;fill-opacity:1;stroke:none;stroke-width:1"
       x="831.85815"
       y="1217.3717"
       id="text4246-3-6-2"><tspan
         sodipodi:role="line"
         style="font-style:italic;font-variant:normal;font-weight:normal;font-stretch:normal;font-size:37.56311798px;line-height:1.20000005;font-family:Lavi;-inkscape-font-specification:'Lavi Italic';stroke-width:1.19798362"
         x="831.85815"
         y="1217.3717"
         id="tspan843-1-7">Quick!</tspan><tspan
         sodipodi:role="line"
         style="font-style:italic;font-variant:normal;font-weight:normal;font-stretch:normal;font-size:37.56311798px;line-height:1.20000005;font-family:Lavi;-inkscape-font-specification:'Lavi Italic';stroke-width:1.19798362"
         x="831.85815"
         y="1262.4474"
         id="tspan953-0">It's her!</tspan></text>
    <text
       xml:space="preserve"
       style="font-style:normal;font-variant:normal;font-weight:normal;font-stretch:normal;line-height:0%;font-family:Lavi;-inkscape-font-specification:Lavi;text-align:center;letter-spacing:0px;word-spacing:0px;text-anchor:middle;fill:#000000;fill-opacity:1;stroke:none"
       x="367.90039"
       y="1963.8163"
       id="text4246-3-3"><tspan
         sodipodi:role="line"
         style="font-size:45px;line-height:1.20000005"
         x="367.90039"
         y="1963.8163"
         id="tspan843-6">Miss Saffron! Can</tspan><tspan
         sodipodi:role="line"
         style="font-size:45px;line-height:1.20000005"
         x="367.90039"
         y="2017.8163"
         id="tspan1029">you say a few words</tspan><tspan
         sodipodi:role="line"
         style="font-size:45px;line-height:1.20000005"
         x="367.90039"
         y="2071.8164"
         id="tspan1031">for the Qualicity</tspan><tspan
         sodipodi:role="line"
         style="font-size:45px;line-height:1.20000005"
         x="367.90039"
         y="2125.8164"
         id="tspan1033">Daily?</tspan></text>
    <text
       xml:space="preserve"
       style="font-style:normal;font-variant:normal;font-weight:normal;font-stretch:normal;line-height:0%;font-family:Lavi;-inkscape-font-specification:Lavi;text-align:center;letter-spacing:0px;word-spacing:0px;text-anchor:middle;fill:#000000;fill-opacity:1;stroke:none"
       x="1079.9633"
       y="2614.5867"
       id="text4246-3-3-2"><tspan
         sodipodi:role="line"
         style="font-size:45px;line-height:1.20000005"
         x="1079.9633"
         y="2614.5867"
         id="tspan1033-7">Yes,</tspan><tspan
         sodipodi:role="line"
         style="font-size:45px;line-height:1.20000005"
         x="1079.9633"
         y="2668.5867"
         id="tspan6907">of course!</tspan></text>
    <text
       xml:space="preserve"
       style="font-style:normal;font-variant:normal;font-weight:normal;font-stretch:normal;line-height:0%;font-family:Lavi;-inkscape-font-specification:Lavi;text-align:center;letter-spacing:0px;word-spacing:0px;text-anchor:middle;fill:#000000;fill-opacity:1;stroke:none"
       x="2270.6716"
       y="1959.842"
       id="text4246-3-3-2-2"><tspan
         sodipodi:role="line"
         style="font-size:45px;line-height:1.20000005"
         x="2270.6716"
         y="1959.842"
         id="tspan1033-7-3">...</tspan></text>
    <text
       xml:space="preserve"
       style="font-style:normal;font-variant:normal;font-weight:normal;font-stretch:normal;line-height:0%;font-family:Lavi;-inkscape-font-specification:Lavi;text-align:center;letter-spacing:0px;word-spacing:0px;text-anchor:middle;fill:#000000;fill-opacity:1;stroke:none"
       x="2153.5139"
       y="2457.2498"
       id="text4246-3-3-7"><tspan
         sodipodi:role="line"
         style="font-size:45px;line-height:1.20000005"
         x="2153.5139"
         y="2457.2498"
         id="tspan1033-2">You see Carrot?</tspan><tspan
         sodipodi:role="line"
         style="font-size:45px;line-height:1.20000005"
         x="2153.5139"
         y="2511.2498"
         id="tspan1155">I think I</tspan><tspan
         sodipodi:role="line"
         style="font-size:45px;line-height:1.20000005"
         x="2153.5139"
         y="2565.2498"
         id="tspan7130">understand</tspan><tspan
         sodipodi:role="line"
         style="font-size:45px;line-height:1.20000005"
         x="2153.5139"
         y="2619.2498"
         id="tspan1157">why I'm not</tspan><tspan
         sodipodi:role="line"
         style="font-size:45px;line-height:1.20000005"
         x="2153.5139"
         y="2673.2498"
         id="tspan1159">in the mood.</tspan></text>
    <text
       xml:space="preserve"
       style="font-style:normal;font-variant:normal;font-weight:normal;font-stretch:normal;font-size:16.56267548px;line-height:0%;font-family:Lavi;-inkscape-font-specification:Lavi;text-align:center;letter-spacing:0px;word-spacing:0px;text-anchor:middle;opacity:0.6;fill:#ffffff;fill-opacity:1;stroke:#ffffff;stroke-width:0.4101558;stroke-miterlimit:4;stroke-dasharray:none;stroke-opacity:1"
       x="1244.84"
       y="2682.9194"
       id="text4246-8-1"
       transform="matrix(0.97558615,-0.48724083,-0.02659511,1.0383073,0,0)"><tspan
         sodipodi:role="line"
         style="font-size:42.45798111px;line-height:1.25;fill:#ffffff;stroke:#ffffff;stroke-width:0.4101558;stroke-miterlimit:4;stroke-dasharray:none;stroke-opacity:1"
         x="1244.84"
         y="2682.9194"
         id="tspan877-7">flash</tspan></text>
    <text
       xml:space="preserve"
       style="font-style:normal;font-variant:normal;font-weight:normal;font-stretch:normal;font-size:16.56267548px;line-height:0%;font-family:Lavi;-inkscape-font-specification:Lavi;text-align:center;letter-spacing:0px;word-spacing:0px;text-anchor:middle;opacity:0.6;fill:#ffffff;fill-opacity:1;stroke:#ffffff;stroke-width:0.4101558;stroke-miterlimit:4;stroke-dasharray:none;stroke-opacity:1"
       x="499.01602"
       y="2412.8782"
       id="text4246-8-1-0"
       transform="matrix(0.97558615,-0.48724083,-0.02659511,1.0383073,0,0)"><tspan
         sodipodi:role="line"
         style="font-size:42.45798111px;line-height:1.25;fill:#ffffff;stroke:#ffffff;stroke-width:0.4101558;stroke-miterlimit:4;stroke-dasharray:none;stroke-opacity:1"
         x="499.01602"
         y="2412.8782"
         id="tspan877-7-9">flash</tspan></text>
    <text
       xml:space="preserve"
       style="font-style:normal;font-variant:normal;font-weight:normal;font-stretch:normal;font-size:16.56267548px;line-height:0%;font-family:Lavi;-inkscape-font-specification:Lavi;text-align:center;letter-spacing:0px;word-spacing:0px;text-anchor:middle;opacity:0.6;fill:#ffffff;fill-opacity:1;stroke:#ffffff;stroke-width:0.4101558;stroke-miterlimit:4;stroke-dasharray:none;stroke-opacity:1"
       x="1191.4009"
       y="2475.9683"
       id="text4246-8-1-3"
       transform="matrix(0.97558615,-0.48724083,-0.02659511,1.0383073,0,0)"><tspan
         sodipodi:role="line"
         style="font-size:42.45798111px;line-height:1.25;fill:#ffffff;stroke:#ffffff;stroke-width:0.4101558;stroke-miterlimit:4;stroke-dasharray:none;stroke-opacity:1"
         x="1191.4009"
         y="2475.9683"
         id="tspan877-7-6">flash</tspan></text>
    <text
       xml:space="preserve"
       style="font-style:normal;font-variant:normal;font-weight:normal;font-stretch:normal;font-size:16.56267548px;line-height:0%;font-family:Lavi;-inkscape-font-specification:Lavi;text-align:center;letter-spacing:0px;word-spacing:0px;text-anchor:middle;opacity:0.6;fill:#ffffff;fill-opacity:1;stroke:#ffffff;stroke-width:0.4101558;stroke-miterlimit:4;stroke-dasharray:none;stroke-opacity:1"
       x="748.97931"
       y="2236.5627"
       id="text4246-8-1-06"
       transform="matrix(0.97558615,-0.48724083,-0.02659511,1.0383073,0,0)"><tspan
         sodipodi:role="line"
         style="font-size:42.45798111px;line-height:1.25;fill:#ffffff;stroke:#ffffff;stroke-width:0.4101558;stroke-miterlimit:4;stroke-dasharray:none;stroke-opacity:1"
         x="748.97931"
         y="2236.5627"
         id="tspan877-7-2">flash</tspan></text>
  </g>
</svg>
